(export (version "E")
  (design
    (source "C:\\Users\\IObrizio\\Documents\\Proyectos_Kicad\\Mini_Robot\\Mini_Robot.kicad_sch")
    (date "29/10/2022 12:04:12")
    (tool "Eeschema (6.0.1)")
    (sheet (number "1") (name "/") (tstamps "/")
      (title_block
        (title)
        (company)
        (rev)
        (date)
        (source "Mini_Robot.kicad_sch")
        (comment (number "1") (value ""))
        (comment (number "2") (value ""))
        (comment (number "3") (value ""))
        (comment (number "4") (value ""))
        (comment (number "5") (value ""))
        (comment (number "6") (value ""))
        (comment (number "7") (value ""))
        (comment (number "8") (value ""))
        (comment (number "9") (value "")))))
  (components
    (comp (ref "C1")
      (value "470uF")
      (footprint "Capacitor_THT:CP_Radial_D10.0mm_P2.50mm_P5.00mm")
      (datasheet "~")
      (libsource (lib "Device") (part "C_Polarized") (description "Polarized capacitor"))
      (property (name "Sheetname") (value ""))
      (property (name "Sheetfile") (value "Mini_Robot.kicad_sch"))
      (sheetpath (names "/") (tstamps "/"))
      (tstamps "d2e6d8ac-a49d-45e2-9356-363de37bf01e"))
    (comp (ref "C2")
      (value "100nF")
      (footprint "Capacitor_THT:C_Disc_D5.0mm_W2.5mm_P5.00mm")
      (datasheet "~")
      (libsource (lib "Device") (part "C") (description "Unpolarized capacitor"))
      (property (name "Sheetname") (value ""))
      (property (name "Sheetfile") (value "Mini_Robot.kicad_sch"))
      (sheetpath (names "/") (tstamps "/"))
      (tstamps "781ebe9a-24b5-4a9e-9996-eeb8a67cb724"))
    (comp (ref "D1")
      (value "RED")
      (footprint "LED_THT:LED_D5.0mm")
      (datasheet "~")
      (libsource (lib "Device") (part "LED") (description "Light emitting diode"))
      (property (name "Sheetname") (value ""))
      (property (name "Sheetfile") (value "Mini_Robot.kicad_sch"))
      (sheetpath (names "/") (tstamps "/"))
      (tstamps "21b5ad3b-528b-4960-940e-6da121708a05"))
    (comp (ref "D2")
      (value "RED")
      (footprint "LED_THT:LED_D5.0mm")
      (datasheet "~")
      (libsource (lib "Device") (part "LED") (description "Light emitting diode"))
      (property (name "Sheetname") (value ""))
      (property (name "Sheetfile") (value "Mini_Robot.kicad_sch"))
      (sheetpath (names "/") (tstamps "/"))
      (tstamps "722fbfc5-61d0-4f42-8c8a-be59f23717c9"))
    (comp (ref "D3")
      (value "1N4148")
      (footprint "Diode_THT:D_A-405_P10.16mm_Horizontal")
      (datasheet "https://assets.nexperia.com/documents/data-sheet/1N4148_1N4448.pdf")
      (libsource (lib "Diode") (part "1N4148") (description "100V 0.15A standard switching diode, DO-35"))
      (property (name "Sheetname") (value ""))
      (property (name "Sheetfile") (value "Mini_Robot.kicad_sch"))
      (sheetpath (names "/") (tstamps "/"))
      (tstamps "ac0d0802-bef8-45b2-9579-8c4abe56efe8"))
    (comp (ref "D4")
      (value "1N4148")
      (footprint "Diode_THT:D_A-405_P10.16mm_Horizontal")
      (datasheet "https://assets.nexperia.com/documents/data-sheet/1N4148_1N4448.pdf")
      (libsource (lib "Diode") (part "1N4148") (description "100V 0.15A standard switching diode, DO-35"))
      (property (name "Sheetname") (value ""))
      (property (name "Sheetfile") (value "Mini_Robot.kicad_sch"))
      (sheetpath (names "/") (tstamps "/"))
      (tstamps "b9cbd035-759b-47bd-bb06-5bf96e1f4b95"))
    (comp (ref "H1")
      (value "MountingHole")
      (footprint "MountingHole:MountingHole_2.5mm_Pad_Via")
      (datasheet "~")
      (libsource (lib "Mechanical") (part "MountingHole") (description "Mounting Hole without connection"))
      (property (name "Sheetname") (value ""))
      (property (name "Sheetfile") (value "Mini_Robot.kicad_sch"))
      (sheetpath (names "/") (tstamps "/"))
      (tstamps "768641c3-92f6-4dc5-bbb8-d76f3ce97622"))
    (comp (ref "H2")
      (value "MountingHole")
      (footprint "MountingHole:MountingHole_3.2mm_M3")
      (datasheet "~")
      (libsource (lib "Mechanical") (part "MountingHole") (description "Mounting Hole without connection"))
      (property (name "Sheetname") (value ""))
      (property (name "Sheetfile") (value "Mini_Robot.kicad_sch"))
      (sheetpath (names "/") (tstamps "/"))
      (tstamps "91f80ebb-15ef-4943-8856-8c42833c55cd"))
    (comp (ref "H3")
      (value "MountingHole")
      (footprint "MountingHole:MountingHole_3.2mm_M3")
      (datasheet "~")
      (libsource (lib "Mechanical") (part "MountingHole") (description "Mounting Hole without connection"))
      (property (name "Sheetname") (value ""))
      (property (name "Sheetfile") (value "Mini_Robot.kicad_sch"))
      (sheetpath (names "/") (tstamps "/"))
      (tstamps "1646c9fb-0559-4464-9482-891fce44f303"))
    (comp (ref "H4")
      (value "MountingHole")
      (footprint "MountingHole:MountingHole_3.2mm_M3")
      (datasheet "~")
      (libsource (lib "Mechanical") (part "MountingHole") (description "Mounting Hole without connection"))
      (property (name "Sheetname") (value ""))
      (property (name "Sheetfile") (value "Mini_Robot.kicad_sch"))
      (sheetpath (names "/") (tstamps "/"))
      (tstamps "c5d7cbf9-da12-4007-8929-c299650e6b59"))
    (comp (ref "J1")
      (value "Conn_01x02_Female")
      (footprint "TerminalBlock:TerminalBlock_bornier-2_P5.08mm")
      (datasheet "~")
      (libsource (lib "Connector") (part "Conn_01x02_Female") (description "Generic connector, single row, 01x02, script generated (kicad-library-utils/schlib/autogen/connector/)"))
      (property (name "Sheetname") (value ""))
      (property (name "Sheetfile") (value "Mini_Robot.kicad_sch"))
      (sheetpath (names "/") (tstamps "/"))
      (tstamps "2972897a-7fe1-46e2-9215-b40299c87aa7"))
    (comp (ref "J2")
      (value "N20_B_DC")
      (footprint "mini_robot:N20_bracket")
      (libsource (lib "") (part "N20_B_DC_1") (description "motor dc pololu bracket"))
      (property (name "Sheetname") (value ""))
      (property (name "Sheetfile") (value "Mini_Robot.kicad_sch"))
      (sheetpath (names "/") (tstamps "/"))
      (tstamps "0b17d3cb-8005-469d-8980-93ef6e490afa"))
    (comp (ref "J3")
      (value "N20_B_DC")
      (footprint "mini_robot:N20_bracket")
      (libsource (lib "") (part "N20_B_DC_1") (description "motor dc pololu bracket"))
      (property (name "Sheetname") (value ""))
      (property (name "Sheetfile") (value "Mini_Robot.kicad_sch"))
      (sheetpath (names "/") (tstamps "/"))
      (tstamps "298cf60c-827b-40ae-b1f3-250493e527ec"))
    (comp (ref "M1")
      (value "Motor_DC")
      (footprint "TerminalBlock:TerminalBlock_bornier-2_P5.08mm")
      (datasheet "~")
      (libsource (lib "Motor") (part "Motor_DC") (description "DC Motor"))
      (property (name "Sheetname") (value ""))
      (property (name "Sheetfile") (value "Mini_Robot.kicad_sch"))
      (sheetpath (names "/") (tstamps "/"))
      (tstamps "3ea8dfc9-1369-4075-848c-e837675d898c"))
    (comp (ref "M2")
      (value "Motor_DC")
      (footprint "TerminalBlock:TerminalBlock_bornier-2_P5.08mm")
      (datasheet "~")
      (libsource (lib "Motor") (part "Motor_DC") (description "DC Motor"))
      (property (name "Sheetname") (value ""))
      (property (name "Sheetfile") (value "Mini_Robot.kicad_sch"))
      (sheetpath (names "/") (tstamps "/"))
      (tstamps "92ccf92a-ddf8-4bde-ba6c-f80c8d604689"))
    (comp (ref "Q1")
      (value "BC547C")
      (footprint "Package_TO_SOT_THT:TO-92_Inline")
      (datasheet "https://www.onsemi.com/pub/Collateral/BC550-D.pdf")
      (libsource (lib "Transistor_BJT") (part "BC547") (description "0.1A Ic, 45V Vce, Small Signal NPN Transistor, TO-92"))
      (property (name "Sheetname") (value ""))
      (property (name "Sheetfile") (value "Mini_Robot.kicad_sch"))
      (sheetpath (names "/") (tstamps "/"))
      (tstamps "ba5e2d99-8727-43fd-92f9-baae098cce35"))
    (comp (ref "Q2")
      (value "BC547C")
      (footprint "Package_TO_SOT_THT:TO-92_Inline")
      (datasheet "https://www.onsemi.com/pub/Collateral/BC550-D.pdf")
      (libsource (lib "Transistor_BJT") (part "BC547") (description "0.1A Ic, 45V Vce, Small Signal NPN Transistor, TO-92"))
      (property (name "Sheetname") (value ""))
      (property (name "Sheetfile") (value "Mini_Robot.kicad_sch"))
      (sheetpath (names "/") (tstamps "/"))
      (tstamps "ac9d757d-012c-432c-a654-83d7bcc27d73"))
    (comp (ref "R1")
      (value "10k")
      (footprint "OptoDevice:R_LDR_5.1x4.3mm_P3.4mm_Vertical")
      (datasheet "~")
      (libsource (lib "Device") (part "R_Photo") (description "Photoresistor"))
      (property (name "Sheetname") (value ""))
      (property (name "Sheetfile") (value "Mini_Robot.kicad_sch"))
      (sheetpath (names "/") (tstamps "/"))
      (tstamps "7b1d92db-f0e2-45ca-a599-478fa762b292"))
    (comp (ref "R2")
      (value "10k")
      (footprint "OptoDevice:R_LDR_5.1x4.3mm_P3.4mm_Vertical")
      (datasheet "~")
      (libsource (lib "Device") (part "R_Photo") (description "Photoresistor"))
      (property (name "Sheetname") (value ""))
      (property (name "Sheetfile") (value "Mini_Robot.kicad_sch"))
      (sheetpath (names "/") (tstamps "/"))
      (tstamps "e25ee082-4cda-481c-a9b9-b84e71d3e5d1"))
    (comp (ref "R3")
      (value "2.2k")
      (footprint "Resistor_THT:R_Axial_DIN0207_L6.3mm_D2.5mm_P10.16mm_Horizontal")
      (datasheet "~")
      (libsource (lib "Device") (part "R") (description "Resistor"))
      (property (name "Sheetname") (value ""))
      (property (name "Sheetfile") (value "Mini_Robot.kicad_sch"))
      (sheetpath (names "/") (tstamps "/"))
      (tstamps "618d4cbd-b803-47b5-8793-a37d112e0b87"))
    (comp (ref "R4")
      (value "2.2k")
      (footprint "Resistor_THT:R_Axial_DIN0207_L6.3mm_D2.5mm_P10.16mm_Horizontal")
      (datasheet "~")
      (libsource (lib "Device") (part "R") (description "Resistor"))
      (property (name "Sheetname") (value ""))
      (property (name "Sheetfile") (value "Mini_Robot.kicad_sch"))
      (sheetpath (names "/") (tstamps "/"))
      (tstamps "a2975f31-0e93-425e-b10a-5a22fb27f07e"))
    (comp (ref "R5")
      (value "560")
      (footprint "Resistor_THT:R_Axial_DIN0207_L6.3mm_D2.5mm_P10.16mm_Horizontal")
      (datasheet "~")
      (libsource (lib "Device") (part "R") (description "Resistor"))
      (property (name "Sheetname") (value ""))
      (property (name "Sheetfile") (value "Mini_Robot.kicad_sch"))
      (sheetpath (names "/") (tstamps "/"))
      (tstamps "de5fb0e8-fac1-4bf7-ba8a-c00ab41a8522"))
    (comp (ref "R6")
      (value "560")
      (footprint "Resistor_THT:R_Axial_DIN0207_L6.3mm_D2.5mm_P10.16mm_Horizontal")
      (datasheet "~")
      (libsource (lib "Device") (part "R") (description "Resistor"))
      (property (name "Sheetname") (value ""))
      (property (name "Sheetfile") (value "Mini_Robot.kicad_sch"))
      (sheetpath (names "/") (tstamps "/"))
      (tstamps "93a550f2-9331-496a-9929-1fe2eaa3b03f"))
    (comp (ref "RV1")
      (value "10k")
      (footprint "Potentiometer_THT:Potentiometer_Bourns_3386F_Vertical")
      (datasheet "~")
      (libsource (lib "Device") (part "R_Potentiometer") (description "Potentiometer"))
      (property (name "Sheetname") (value ""))
      (property (name "Sheetfile") (value "Mini_Robot.kicad_sch"))
      (sheetpath (names "/") (tstamps "/"))
      (tstamps "e4a1ccda-45e3-4130-a922-9b190d3d748f"))
    (comp (ref "SW1")
      (value "SW_Push_DPDT")
      (footprint "Button_Switch_THT:SW_CuK_JS202011CQN_DPDT_Straight")
      (datasheet "~")
      (libsource (lib "Switch") (part "SW_Push_DPDT") (description "Momentary Switch, dual pole double throw"))
      (property (name "Sheetname") (value ""))
      (property (name "Sheetfile") (value "Mini_Robot.kicad_sch"))
      (sheetpath (names "/") (tstamps "/"))
      (tstamps "94109bd5-5b86-4e83-aa95-e4d11368110b"))
    (comp (ref "U1")
      (value "LM358")
      (footprint "Package_DIP:DIP-8_W7.62mm_LongPads")
      (datasheet "http://www.ti.com/lit/ds/symlink/lm2904-n.pdf")
      (libsource (lib "Amplifier_Operational") (part "LM358") (description "Low-Power, Dual Operational Amplifiers, DIP-8/SOIC-8/TO-99-8"))
      (property (name "Sheetname") (value ""))
      (property (name "Sheetfile") (value "Mini_Robot.kicad_sch"))
      (sheetpath (names "/") (tstamps "/"))
      (tstamps "a0e18bf1-63ce-4cca-bb21-bce1f4fe71f4" "9472c74b-a2bf-4225-b789-317221fc74cb" "22bc8091-0bd5-4e84-bba0-4f80a4d590cc")))
  (libparts
    (libpart (lib "") (part "N20_B_DC_1")
      (description "motor dc pololu bracket")
      (fields
        (field (name "Reference") "J")
        (field (name "Value") "N20_B_DC_1")
        (field (name "Footprint") "mini_robot:N20_bracket")))
    (libpart (lib "Amplifier_Operational") (part "LM358")
      (description "Low-Power, Dual Operational Amplifiers, DIP-8/SOIC-8/TO-99-8")
      (docs "http://www.ti.com/lit/ds/symlink/lm2904-n.pdf")
      (footprints
        (fp "SOIC*3.9x4.9mm*P1.27mm*")
        (fp "DIP*W7.62mm*")
        (fp "TO*99*")
        (fp "OnSemi*Micro8*")
        (fp "TSSOP*3x3mm*P0.65mm*")
        (fp "TSSOP*4.4x3mm*P0.65mm*")
        (fp "MSOP*3x3mm*P0.65mm*")
        (fp "SSOP*3.9x4.9mm*P0.635mm*")
        (fp "LFCSP*2x2mm*P0.5mm*")
        (fp "*SIP*")
        (fp "SOIC*5.3x6.2mm*P1.27mm*"))
      (fields
        (field (name "Reference") "U")
        (field (name "Value") "LM358")
        (field (name "Datasheet") "http://www.ti.com/lit/ds/symlink/lm2904-n.pdf"))
      (pins
        (pin (num "1") (name "") (type "output"))
        (pin (num "2") (name "-") (type "input"))
        (pin (num "3") (name "+") (type "input"))
        (pin (num "4") (name "V-") (type "power_in"))
        (pin (num "5") (name "+") (type "input"))
        (pin (num "6") (name "-") (type "input"))
        (pin (num "7") (name "") (type "output"))
        (pin (num "8") (name "V+") (type "power_in"))))
    (libpart (lib "Connector") (part "Conn_01x02_Female")
      (description "Generic connector, single row, 01x02, script generated (kicad-library-utils/schlib/autogen/connector/)")
      (docs "~")
      (footprints
        (fp "Connector*:*_1x??_*"))
      (fields
        (field (name "Reference") "J")
        (field (name "Value") "Conn_01x02_Female")
        (field (name "Datasheet") "~"))
      (pins
        (pin (num "1") (name "Pin_1") (type "passive"))
        (pin (num "2") (name "Pin_2") (type "passive"))))
    (libpart (lib "Device") (part "C")
      (description "Unpolarized capacitor")
      (docs "~")
      (footprints
        (fp "C_*"))
      (fields
        (field (name "Reference") "C")
        (field (name "Value") "C")
        (field (name "Datasheet") "~"))
      (pins
        (pin (num "1") (name "") (type "passive"))
        (pin (num "2") (name "") (type "passive"))))
    (libpart (lib "Device") (part "C_Polarized")
      (description "Polarized capacitor")
      (docs "~")
      (footprints
        (fp "CP_*"))
      (fields
        (field (name "Reference") "C")
        (field (name "Value") "C_Polarized")
        (field (name "Datasheet") "~"))
      (pins
        (pin (num "1") (name "") (type "passive"))
        (pin (num "2") (name "") (type "passive"))))
    (libpart (lib "Device") (part "LED")
      (description "Light emitting diode")
      (docs "~")
      (footprints
        (fp "LED*")
        (fp "LED_SMD:*")
        (fp "LED_THT:*"))
      (fields
        (field (name "Reference") "D")
        (field (name "Value") "LED")
        (field (name "Datasheet") "~"))
      (pins
        (pin (num "1") (name "K") (type "passive"))
        (pin (num "2") (name "A") (type "passive"))))
    (libpart (lib "Device") (part "R")
      (description "Resistor")
      (docs "~")
      (footprints
        (fp "R_*"))
      (fields
        (field (name "Reference") "R")
        (field (name "Value") "R")
        (field (name "Datasheet") "~"))
      (pins
        (pin (num "1") (name "") (type "passive"))
        (pin (num "2") (name "") (type "passive"))))
    (libpart (lib "Device") (part "R_Photo")
      (description "Photoresistor")
      (docs "~")
      (footprints
        (fp "*LDR*")
        (fp "R?LDR*"))
      (fields
        (field (name "Reference") "R")
        (field (name "Value") "R_Photo")
        (field (name "Datasheet") "~"))
      (pins
        (pin (num "1") (name "") (type "passive"))
        (pin (num "2") (name "") (type "passive"))))
    (libpart (lib "Device") (part "R_Potentiometer")
      (description "Potentiometer")
      (docs "~")
      (footprints
        (fp "Potentiometer*"))
      (fields
        (field (name "Reference") "RV")
        (field (name "Value") "R_Potentiometer")
        (field (name "Datasheet") "~"))
      (pins
        (pin (num "1") (name "1") (type "passive"))
        (pin (num "2") (name "2") (type "passive"))
        (pin (num "3") (name "3") (type "passive"))))
    (libpart (lib "Diode") (part "1N4148")
      (description "100V 0.15A standard switching diode, DO-35")
      (docs "https://assets.nexperia.com/documents/data-sheet/1N4148_1N4448.pdf")
      (footprints
        (fp "D*DO?35*"))
      (fields
        (field (name "Reference") "D")
        (field (name "Value") "1N4148")
        (field (name "Footprint") "Diode_THT:D_DO-35_SOD27_P7.62mm_Horizontal")
        (field (name "Datasheet") "https://assets.nexperia.com/documents/data-sheet/1N4148_1N4448.pdf"))
      (pins
        (pin (num "1") (name "K") (type "passive"))
        (pin (num "2") (name "A") (type "passive"))))
    (libpart (lib "Mechanical") (part "MountingHole")
      (description "Mounting Hole without connection")
      (docs "~")
      (footprints
        (fp "MountingHole*"))
      (fields
        (field (name "Reference") "H")
        (field (name "Value") "MountingHole")
        (field (name "Datasheet") "~")))
    (libpart (lib "Motor") (part "Motor_DC")
      (description "DC Motor")
      (docs "~")
      (footprints
        (fp "PinHeader*P2.54mm*")
        (fp "TerminalBlock*"))
      (fields
        (field (name "Reference") "M")
        (field (name "Value") "Motor_DC")
        (field (name "Datasheet") "~"))
      (pins
        (pin (num "1") (name "+") (type "passive"))
        (pin (num "2") (name "-") (type "passive"))))
    (libpart (lib "Switch") (part "SW_Push_DPDT")
      (description "Momentary Switch, dual pole double throw")
      (docs "~")
      (fields
        (field (name "Reference") "SW")
        (field (name "Value") "SW_Push_DPDT")
        (field (name "Datasheet") "~"))
      (pins
        (pin (num "1") (name "A") (type "passive"))
        (pin (num "2") (name "B") (type "passive"))
        (pin (num "3") (name "C") (type "passive"))
        (pin (num "4") (name "A") (type "passive"))
        (pin (num "5") (name "B") (type "passive"))
        (pin (num "6") (name "C") (type "passive"))))
    (libpart (lib "Transistor_BJT") (part "BC547")
      (description "0.1A Ic, 45V Vce, Small Signal NPN Transistor, TO-92")
      (docs "https://www.onsemi.com/pub/Collateral/BC550-D.pdf")
      (footprints
        (fp "TO?92*"))
      (fields
        (field (name "Reference") "Q")
        (field (name "Value") "BC547")
        (field (name "Footprint") "Package_TO_SOT_THT:TO-92_Inline")
        (field (name "Datasheet") "https://www.onsemi.com/pub/Collateral/BC550-D.pdf"))
      (pins
        (pin (num "1") (name "C") (type "passive"))
        (pin (num "2") (name "B") (type "input"))
        (pin (num "3") (name "E") (type "passive")))))
  (libraries
    (library (logical "Amplifier_Operational")
      (uri "C:\\Program Files\\KiCad\\6.0\\share\\kicad\\symbols\\/Amplifier_Operational.kicad_sym"))
    (library (logical "Connector")
      (uri "C:\\Program Files\\KiCad\\6.0\\share\\kicad\\symbols\\/Connector.kicad_sym"))
    (library (logical "Device")
      (uri "C:\\Program Files\\KiCad\\6.0\\share\\kicad\\symbols\\/Device.kicad_sym"))
    (library (logical "Diode")
      (uri "C:\\Program Files\\KiCad\\6.0\\share\\kicad\\symbols\\/Diode.kicad_sym"))
    (library (logical "Mechanical")
      (uri "C:\\Program Files\\KiCad\\6.0\\share\\kicad\\symbols\\/Mechanical.kicad_sym"))
    (library (logical "Motor")
      (uri "C:\\Program Files\\KiCad\\6.0\\share\\kicad\\symbols\\/Motor.kicad_sym"))
    (library (logical "Switch")
      (uri "C:\\Program Files\\KiCad\\6.0\\share\\kicad\\symbols\\/Switch.kicad_sym"))
    (library (logical "Transistor_BJT")
      (uri "C:\\Program Files\\KiCad\\6.0\\share\\kicad\\symbols\\/Transistor_BJT.kicad_sym")))
  (nets
    (net (code "1") (name "+5V")
      (node (ref "C1") (pin "1") (pintype "passive"))
      (node (ref "C2") (pin "1") (pintype "passive"))
      (node (ref "D3") (pin "1") (pinfunction "K") (pintype "passive"))
      (node (ref "D4") (pin "1") (pinfunction "K") (pintype "passive"))
      (node (ref "M1") (pin "1") (pinfunction "+") (pintype "passive"))
      (node (ref "M2") (pin "1") (pinfunction "+") (pintype "passive"))
      (node (ref "R1") (pin "1") (pintype "passive"))
      (node (ref "R5") (pin "1") (pintype "passive"))
      (node (ref "R6") (pin "1") (pintype "passive"))
      (node (ref "RV1") (pin "1") (pinfunction "1") (pintype "passive"))
      (node (ref "SW1") (pin "3") (pinfunction "C") (pintype "passive"))
      (node (ref "SW1") (pin "6") (pinfunction "C") (pintype "passive"))
      (node (ref "U1") (pin "8") (pinfunction "V+") (pintype "power_in")))
    (net (code "2") (name "/C_A")
      (node (ref "D1") (pin "1") (pinfunction "K") (pintype "passive"))
      (node (ref "D3") (pin "2") (pinfunction "A") (pintype "passive"))
      (node (ref "M1") (pin "2") (pinfunction "-") (pintype "passive"))
      (node (ref "Q1") (pin "1") (pinfunction "C") (pintype "passive")))
    (net (code "3") (name "/C_B")
      (node (ref "D2") (pin "1") (pinfunction "K") (pintype "passive"))
      (node (ref "D4") (pin "2") (pinfunction "A") (pintype "passive"))
      (node (ref "M2") (pin "2") (pinfunction "-") (pintype "passive"))
      (node (ref "Q2") (pin "1") (pinfunction "C") (pintype "passive")))
    (net (code "4") (name "/OUT_A")
      (node (ref "R3") (pin "1") (pintype "passive"))
      (node (ref "U1") (pin "1") (pintype "output")))
    (net (code "5") (name "/OUT_B")
      (node (ref "R4") (pin "1") (pintype "passive"))
      (node (ref "U1") (pin "7") (pintype "output")))
    (net (code "6") (name "/SENSOR")
      (node (ref "R1") (pin "2") (pintype "passive"))
      (node (ref "R2") (pin "1") (pintype "passive"))
      (node (ref "U1") (pin "3") (pinfunction "+") (pintype "input"))
      (node (ref "U1") (pin "6") (pinfunction "-") (pintype "input")))
    (net (code "7") (name "/VIN")
      (node (ref "J1") (pin "2") (pinfunction "Pin_2") (pintype "passive"))
      (node (ref "SW1") (pin "2") (pinfunction "B") (pintype "passive"))
      (node (ref "SW1") (pin "5") (pinfunction "B") (pintype "passive")))
    (net (code "8") (name "/VREF")
      (node (ref "RV1") (pin "2") (pinfunction "2") (pintype "passive"))
      (node (ref "U1") (pin "2") (pinfunction "-") (pintype "input"))
      (node (ref "U1") (pin "5") (pinfunction "+") (pintype "input")))
    (net (code "9") (name "GND")
      (node (ref "C1") (pin "2") (pintype "passive"))
      (node (ref "C2") (pin "2") (pintype "passive"))
      (node (ref "J1") (pin "1") (pinfunction "Pin_1") (pintype "passive"))
      (node (ref "Q1") (pin "3") (pinfunction "E") (pintype "passive"))
      (node (ref "Q2") (pin "3") (pinfunction "E") (pintype "passive"))
      (node (ref "R2") (pin "2") (pintype "passive"))
      (node (ref "RV1") (pin "3") (pinfunction "3") (pintype "passive"))
      (node (ref "U1") (pin "4") (pinfunction "V-") (pintype "power_in")))
    (net (code "10") (name "Net-(D1-Pad2)")
      (node (ref "D1") (pin "2") (pinfunction "A") (pintype "passive"))
      (node (ref "R5") (pin "2") (pintype "passive")))
    (net (code "11") (name "Net-(D2-Pad2)")
      (node (ref "D2") (pin "2") (pinfunction "A") (pintype "passive"))
      (node (ref "R6") (pin "2") (pintype "passive")))
    (net (code "12") (name "Net-(Q1-Pad2)")
      (node (ref "Q1") (pin "2") (pinfunction "B") (pintype "input"))
      (node (ref "R3") (pin "2") (pintype "passive")))
    (net (code "13") (name "Net-(Q2-Pad2)")
      (node (ref "Q2") (pin "2") (pinfunction "B") (pintype "input"))
      (node (ref "R4") (pin "2") (pintype "passive")))
    (net (code "14") (name "unconnected-(SW1-Pad1)")
      (node (ref "SW1") (pin "1") (pinfunction "A") (pintype "passive")))
    (net (code "15") (name "unconnected-(SW1-Pad4)")
      (node (ref "SW1") (pin "4") (pinfunction "A") (pintype "passive")))))