(kicad_sch (version 20211123) (generator eeschema)

  (uuid 752fb403-49b7-42a8-a984-6763dd619192)

  (paper "A4")

  (title_block
    (title "Mini robor seguidor de luz")
    (date "2022-11-05")
    (company "IObrizio ")
    (comment 1 "Electronic designer & maker!")
    (comment 2 "https://gitlab.com/IObrizio/mini_robot_luz")
  )

  (lib_symbols
    (symbol "Amplifier_Operational:LM358" (pin_names (offset 0.127)) (in_bom yes) (on_board yes)
      (property "Reference" "U" (id 0) (at 0 5.08 0)
        (effects (font (size 1.27 1.27)) (justify left))
      )
      (property "Value" "LM358" (id 1) (at 0 -5.08 0)
        (effects (font (size 1.27 1.27)) (justify left))
      )
      (property "Footprint" "" (id 2) (at 0 0 0)
        (effects (font (size 1.27 1.27)) hide)
      )
      (property "Datasheet" "http://www.ti.com/lit/ds/symlink/lm2904-n.pdf" (id 3) (at 0 0 0)
        (effects (font (size 1.27 1.27)) hide)
      )
      (property "ki_locked" "" (id 4) (at 0 0 0)
        (effects (font (size 1.27 1.27)))
      )
      (property "ki_keywords" "dual opamp" (id 5) (at 0 0 0)
        (effects (font (size 1.27 1.27)) hide)
      )
      (property "ki_description" "Low-Power, Dual Operational Amplifiers, DIP-8/SOIC-8/TO-99-8" (id 6) (at 0 0 0)
        (effects (font (size 1.27 1.27)) hide)
      )
      (property "ki_fp_filters" "SOIC*3.9x4.9mm*P1.27mm* DIP*W7.62mm* TO*99* OnSemi*Micro8* TSSOP*3x3mm*P0.65mm* TSSOP*4.4x3mm*P0.65mm* MSOP*3x3mm*P0.65mm* SSOP*3.9x4.9mm*P0.635mm* LFCSP*2x2mm*P0.5mm* *SIP* SOIC*5.3x6.2mm*P1.27mm*" (id 7) (at 0 0 0)
        (effects (font (size 1.27 1.27)) hide)
      )
      (symbol "LM358_1_1"
        (polyline
          (pts
            (xy -5.08 5.08)
            (xy 5.08 0)
            (xy -5.08 -5.08)
            (xy -5.08 5.08)
          )
          (stroke (width 0.254) (type default) (color 0 0 0 0))
          (fill (type background))
        )
        (pin output line (at 7.62 0 180) (length 2.54)
          (name "~" (effects (font (size 1.27 1.27))))
          (number "1" (effects (font (size 1.27 1.27))))
        )
        (pin input line (at -7.62 -2.54 0) (length 2.54)
          (name "-" (effects (font (size 1.27 1.27))))
          (number "2" (effects (font (size 1.27 1.27))))
        )
        (pin input line (at -7.62 2.54 0) (length 2.54)
          (name "+" (effects (font (size 1.27 1.27))))
          (number "3" (effects (font (size 1.27 1.27))))
        )
      )
      (symbol "LM358_2_1"
        (polyline
          (pts
            (xy -5.08 5.08)
            (xy 5.08 0)
            (xy -5.08 -5.08)
            (xy -5.08 5.08)
          )
          (stroke (width 0.254) (type default) (color 0 0 0 0))
          (fill (type background))
        )
        (pin input line (at -7.62 2.54 0) (length 2.54)
          (name "+" (effects (font (size 1.27 1.27))))
          (number "5" (effects (font (size 1.27 1.27))))
        )
        (pin input line (at -7.62 -2.54 0) (length 2.54)
          (name "-" (effects (font (size 1.27 1.27))))
          (number "6" (effects (font (size 1.27 1.27))))
        )
        (pin output line (at 7.62 0 180) (length 2.54)
          (name "~" (effects (font (size 1.27 1.27))))
          (number "7" (effects (font (size 1.27 1.27))))
        )
      )
      (symbol "LM358_3_1"
        (pin power_in line (at -2.54 -7.62 90) (length 3.81)
          (name "V-" (effects (font (size 1.27 1.27))))
          (number "4" (effects (font (size 1.27 1.27))))
        )
        (pin power_in line (at -2.54 7.62 270) (length 3.81)
          (name "V+" (effects (font (size 1.27 1.27))))
          (number "8" (effects (font (size 1.27 1.27))))
        )
      )
    )
    (symbol "Connector:Conn_01x02_Female" (pin_names (offset 1.016) hide) (in_bom yes) (on_board yes)
      (property "Reference" "J" (id 0) (at 0 2.54 0)
        (effects (font (size 1.27 1.27)))
      )
      (property "Value" "Conn_01x02_Female" (id 1) (at 0 -5.08 0)
        (effects (font (size 1.27 1.27)))
      )
      (property "Footprint" "" (id 2) (at 0 0 0)
        (effects (font (size 1.27 1.27)) hide)
      )
      (property "Datasheet" "~" (id 3) (at 0 0 0)
        (effects (font (size 1.27 1.27)) hide)
      )
      (property "ki_keywords" "connector" (id 4) (at 0 0 0)
        (effects (font (size 1.27 1.27)) hide)
      )
      (property "ki_description" "Generic connector, single row, 01x02, script generated (kicad-library-utils/schlib/autogen/connector/)" (id 5) (at 0 0 0)
        (effects (font (size 1.27 1.27)) hide)
      )
      (property "ki_fp_filters" "Connector*:*_1x??_*" (id 6) (at 0 0 0)
        (effects (font (size 1.27 1.27)) hide)
      )
      (symbol "Conn_01x02_Female_1_1"
        (arc (start 0 -2.032) (mid -0.508 -2.54) (end 0 -3.048)
          (stroke (width 0.1524) (type default) (color 0 0 0 0))
          (fill (type none))
        )
        (polyline
          (pts
            (xy -1.27 -2.54)
            (xy -0.508 -2.54)
          )
          (stroke (width 0.1524) (type default) (color 0 0 0 0))
          (fill (type none))
        )
        (polyline
          (pts
            (xy -1.27 0)
            (xy -0.508 0)
          )
          (stroke (width 0.1524) (type default) (color 0 0 0 0))
          (fill (type none))
        )
        (arc (start 0 0.508) (mid -0.508 0) (end 0 -0.508)
          (stroke (width 0.1524) (type default) (color 0 0 0 0))
          (fill (type none))
        )
        (pin passive line (at -5.08 0 0) (length 3.81)
          (name "Pin_1" (effects (font (size 1.27 1.27))))
          (number "1" (effects (font (size 1.27 1.27))))
        )
        (pin passive line (at -5.08 -2.54 0) (length 3.81)
          (name "Pin_2" (effects (font (size 1.27 1.27))))
          (number "2" (effects (font (size 1.27 1.27))))
        )
      )
    )
    (symbol "Device:C" (pin_numbers hide) (pin_names (offset 0.254)) (in_bom yes) (on_board yes)
      (property "Reference" "C" (id 0) (at 0.635 2.54 0)
        (effects (font (size 1.27 1.27)) (justify left))
      )
      (property "Value" "C" (id 1) (at 0.635 -2.54 0)
        (effects (font (size 1.27 1.27)) (justify left))
      )
      (property "Footprint" "" (id 2) (at 0.9652 -3.81 0)
        (effects (font (size 1.27 1.27)) hide)
      )
      (property "Datasheet" "~" (id 3) (at 0 0 0)
        (effects (font (size 1.27 1.27)) hide)
      )
      (property "ki_keywords" "cap capacitor" (id 4) (at 0 0 0)
        (effects (font (size 1.27 1.27)) hide)
      )
      (property "ki_description" "Unpolarized capacitor" (id 5) (at 0 0 0)
        (effects (font (size 1.27 1.27)) hide)
      )
      (property "ki_fp_filters" "C_*" (id 6) (at 0 0 0)
        (effects (font (size 1.27 1.27)) hide)
      )
      (symbol "C_0_1"
        (polyline
          (pts
            (xy -2.032 -0.762)
            (xy 2.032 -0.762)
          )
          (stroke (width 0.508) (type default) (color 0 0 0 0))
          (fill (type none))
        )
        (polyline
          (pts
            (xy -2.032 0.762)
            (xy 2.032 0.762)
          )
          (stroke (width 0.508) (type default) (color 0 0 0 0))
          (fill (type none))
        )
      )
      (symbol "C_1_1"
        (pin passive line (at 0 3.81 270) (length 2.794)
          (name "~" (effects (font (size 1.27 1.27))))
          (number "1" (effects (font (size 1.27 1.27))))
        )
        (pin passive line (at 0 -3.81 90) (length 2.794)
          (name "~" (effects (font (size 1.27 1.27))))
          (number "2" (effects (font (size 1.27 1.27))))
        )
      )
    )
    (symbol "Device:C_Polarized" (pin_numbers hide) (pin_names (offset 0.254)) (in_bom yes) (on_board yes)
      (property "Reference" "C" (id 0) (at 0.635 2.54 0)
        (effects (font (size 1.27 1.27)) (justify left))
      )
      (property "Value" "C_Polarized" (id 1) (at 0.635 -2.54 0)
        (effects (font (size 1.27 1.27)) (justify left))
      )
      (property "Footprint" "" (id 2) (at 0.9652 -3.81 0)
        (effects (font (size 1.27 1.27)) hide)
      )
      (property "Datasheet" "~" (id 3) (at 0 0 0)
        (effects (font (size 1.27 1.27)) hide)
      )
      (property "ki_keywords" "cap capacitor" (id 4) (at 0 0 0)
        (effects (font (size 1.27 1.27)) hide)
      )
      (property "ki_description" "Polarized capacitor" (id 5) (at 0 0 0)
        (effects (font (size 1.27 1.27)) hide)
      )
      (property "ki_fp_filters" "CP_*" (id 6) (at 0 0 0)
        (effects (font (size 1.27 1.27)) hide)
      )
      (symbol "C_Polarized_0_1"
        (rectangle (start -2.286 0.508) (end 2.286 1.016)
          (stroke (width 0) (type default) (color 0 0 0 0))
          (fill (type none))
        )
        (polyline
          (pts
            (xy -1.778 2.286)
            (xy -0.762 2.286)
          )
          (stroke (width 0) (type default) (color 0 0 0 0))
          (fill (type none))
        )
        (polyline
          (pts
            (xy -1.27 2.794)
            (xy -1.27 1.778)
          )
          (stroke (width 0) (type default) (color 0 0 0 0))
          (fill (type none))
        )
        (rectangle (start 2.286 -0.508) (end -2.286 -1.016)
          (stroke (width 0) (type default) (color 0 0 0 0))
          (fill (type outline))
        )
      )
      (symbol "C_Polarized_1_1"
        (pin passive line (at 0 3.81 270) (length 2.794)
          (name "~" (effects (font (size 1.27 1.27))))
          (number "1" (effects (font (size 1.27 1.27))))
        )
        (pin passive line (at 0 -3.81 90) (length 2.794)
          (name "~" (effects (font (size 1.27 1.27))))
          (number "2" (effects (font (size 1.27 1.27))))
        )
      )
    )
    (symbol "Device:LED" (pin_numbers hide) (pin_names (offset 1.016) hide) (in_bom yes) (on_board yes)
      (property "Reference" "D" (id 0) (at 0 2.54 0)
        (effects (font (size 1.27 1.27)))
      )
      (property "Value" "LED" (id 1) (at 0 -2.54 0)
        (effects (font (size 1.27 1.27)))
      )
      (property "Footprint" "" (id 2) (at 0 0 0)
        (effects (font (size 1.27 1.27)) hide)
      )
      (property "Datasheet" "~" (id 3) (at 0 0 0)
        (effects (font (size 1.27 1.27)) hide)
      )
      (property "ki_keywords" "LED diode" (id 4) (at 0 0 0)
        (effects (font (size 1.27 1.27)) hide)
      )
      (property "ki_description" "Light emitting diode" (id 5) (at 0 0 0)
        (effects (font (size 1.27 1.27)) hide)
      )
      (property "ki_fp_filters" "LED* LED_SMD:* LED_THT:*" (id 6) (at 0 0 0)
        (effects (font (size 1.27 1.27)) hide)
      )
      (symbol "LED_0_1"
        (polyline
          (pts
            (xy -1.27 -1.27)
            (xy -1.27 1.27)
          )
          (stroke (width 0.254) (type default) (color 0 0 0 0))
          (fill (type none))
        )
        (polyline
          (pts
            (xy -1.27 0)
            (xy 1.27 0)
          )
          (stroke (width 0) (type default) (color 0 0 0 0))
          (fill (type none))
        )
        (polyline
          (pts
            (xy 1.27 -1.27)
            (xy 1.27 1.27)
            (xy -1.27 0)
            (xy 1.27 -1.27)
          )
          (stroke (width 0.254) (type default) (color 0 0 0 0))
          (fill (type none))
        )
        (polyline
          (pts
            (xy -3.048 -0.762)
            (xy -4.572 -2.286)
            (xy -3.81 -2.286)
            (xy -4.572 -2.286)
            (xy -4.572 -1.524)
          )
          (stroke (width 0) (type default) (color 0 0 0 0))
          (fill (type none))
        )
        (polyline
          (pts
            (xy -1.778 -0.762)
            (xy -3.302 -2.286)
            (xy -2.54 -2.286)
            (xy -3.302 -2.286)
            (xy -3.302 -1.524)
          )
          (stroke (width 0) (type default) (color 0 0 0 0))
          (fill (type none))
        )
      )
      (symbol "LED_1_1"
        (pin passive line (at -3.81 0 0) (length 2.54)
          (name "K" (effects (font (size 1.27 1.27))))
          (number "1" (effects (font (size 1.27 1.27))))
        )
        (pin passive line (at 3.81 0 180) (length 2.54)
          (name "A" (effects (font (size 1.27 1.27))))
          (number "2" (effects (font (size 1.27 1.27))))
        )
      )
    )
    (symbol "Device:R" (pin_numbers hide) (pin_names (offset 0)) (in_bom yes) (on_board yes)
      (property "Reference" "R" (id 0) (at 2.032 0 90)
        (effects (font (size 1.27 1.27)))
      )
      (property "Value" "R" (id 1) (at 0 0 90)
        (effects (font (size 1.27 1.27)))
      )
      (property "Footprint" "" (id 2) (at -1.778 0 90)
        (effects (font (size 1.27 1.27)) hide)
      )
      (property "Datasheet" "~" (id 3) (at 0 0 0)
        (effects (font (size 1.27 1.27)) hide)
      )
      (property "ki_keywords" "R res resistor" (id 4) (at 0 0 0)
        (effects (font (size 1.27 1.27)) hide)
      )
      (property "ki_description" "Resistor" (id 5) (at 0 0 0)
        (effects (font (size 1.27 1.27)) hide)
      )
      (property "ki_fp_filters" "R_*" (id 6) (at 0 0 0)
        (effects (font (size 1.27 1.27)) hide)
      )
      (symbol "R_0_1"
        (rectangle (start -1.016 -2.54) (end 1.016 2.54)
          (stroke (width 0.254) (type default) (color 0 0 0 0))
          (fill (type none))
        )
      )
      (symbol "R_1_1"
        (pin passive line (at 0 3.81 270) (length 1.27)
          (name "~" (effects (font (size 1.27 1.27))))
          (number "1" (effects (font (size 1.27 1.27))))
        )
        (pin passive line (at 0 -3.81 90) (length 1.27)
          (name "~" (effects (font (size 1.27 1.27))))
          (number "2" (effects (font (size 1.27 1.27))))
        )
      )
    )
    (symbol "Device:R_Photo" (pin_numbers hide) (pin_names (offset 0)) (in_bom yes) (on_board yes)
      (property "Reference" "R" (id 0) (at 1.27 1.27 0)
        (effects (font (size 1.27 1.27)) (justify left))
      )
      (property "Value" "R_Photo" (id 1) (at 1.27 0 0)
        (effects (font (size 1.27 1.27)) (justify left top))
      )
      (property "Footprint" "" (id 2) (at 1.27 -6.35 90)
        (effects (font (size 1.27 1.27)) (justify left) hide)
      )
      (property "Datasheet" "~" (id 3) (at 0 -1.27 0)
        (effects (font (size 1.27 1.27)) hide)
      )
      (property "ki_keywords" "resistor variable light sensitive opto LDR" (id 4) (at 0 0 0)
        (effects (font (size 1.27 1.27)) hide)
      )
      (property "ki_description" "Photoresistor" (id 5) (at 0 0 0)
        (effects (font (size 1.27 1.27)) hide)
      )
      (property "ki_fp_filters" "*LDR* R?LDR*" (id 6) (at 0 0 0)
        (effects (font (size 1.27 1.27)) hide)
      )
      (symbol "R_Photo_0_1"
        (rectangle (start -1.016 2.54) (end 1.016 -2.54)
          (stroke (width 0.254) (type default) (color 0 0 0 0))
          (fill (type none))
        )
        (polyline
          (pts
            (xy -1.524 -2.286)
            (xy -4.064 0.254)
          )
          (stroke (width 0) (type default) (color 0 0 0 0))
          (fill (type none))
        )
        (polyline
          (pts
            (xy -1.524 -2.286)
            (xy -2.286 -2.286)
          )
          (stroke (width 0) (type default) (color 0 0 0 0))
          (fill (type none))
        )
        (polyline
          (pts
            (xy -1.524 -2.286)
            (xy -1.524 -1.524)
          )
          (stroke (width 0) (type default) (color 0 0 0 0))
          (fill (type none))
        )
        (polyline
          (pts
            (xy -1.524 -0.762)
            (xy -4.064 1.778)
          )
          (stroke (width 0) (type default) (color 0 0 0 0))
          (fill (type none))
        )
        (polyline
          (pts
            (xy -1.524 -0.762)
            (xy -2.286 -0.762)
          )
          (stroke (width 0) (type default) (color 0 0 0 0))
          (fill (type none))
        )
        (polyline
          (pts
            (xy -1.524 -0.762)
            (xy -1.524 0)
          )
          (stroke (width 0) (type default) (color 0 0 0 0))
          (fill (type none))
        )
      )
      (symbol "R_Photo_1_1"
        (pin passive line (at 0 3.81 270) (length 1.27)
          (name "~" (effects (font (size 1.27 1.27))))
          (number "1" (effects (font (size 1.27 1.27))))
        )
        (pin passive line (at 0 -3.81 90) (length 1.27)
          (name "~" (effects (font (size 1.27 1.27))))
          (number "2" (effects (font (size 1.27 1.27))))
        )
      )
    )
    (symbol "Device:R_Potentiometer" (pin_names (offset 1.016) hide) (in_bom yes) (on_board yes)
      (property "Reference" "RV" (id 0) (at -4.445 0 90)
        (effects (font (size 1.27 1.27)))
      )
      (property "Value" "R_Potentiometer" (id 1) (at -2.54 0 90)
        (effects (font (size 1.27 1.27)))
      )
      (property "Footprint" "" (id 2) (at 0 0 0)
        (effects (font (size 1.27 1.27)) hide)
      )
      (property "Datasheet" "~" (id 3) (at 0 0 0)
        (effects (font (size 1.27 1.27)) hide)
      )
      (property "ki_keywords" "resistor variable" (id 4) (at 0 0 0)
        (effects (font (size 1.27 1.27)) hide)
      )
      (property "ki_description" "Potentiometer" (id 5) (at 0 0 0)
        (effects (font (size 1.27 1.27)) hide)
      )
      (property "ki_fp_filters" "Potentiometer*" (id 6) (at 0 0 0)
        (effects (font (size 1.27 1.27)) hide)
      )
      (symbol "R_Potentiometer_0_1"
        (polyline
          (pts
            (xy 2.54 0)
            (xy 1.524 0)
          )
          (stroke (width 0) (type default) (color 0 0 0 0))
          (fill (type none))
        )
        (polyline
          (pts
            (xy 1.143 0)
            (xy 2.286 0.508)
            (xy 2.286 -0.508)
            (xy 1.143 0)
          )
          (stroke (width 0) (type default) (color 0 0 0 0))
          (fill (type outline))
        )
        (rectangle (start 1.016 2.54) (end -1.016 -2.54)
          (stroke (width 0.254) (type default) (color 0 0 0 0))
          (fill (type none))
        )
      )
      (symbol "R_Potentiometer_1_1"
        (pin passive line (at 0 3.81 270) (length 1.27)
          (name "1" (effects (font (size 1.27 1.27))))
          (number "1" (effects (font (size 1.27 1.27))))
        )
        (pin passive line (at 3.81 0 180) (length 1.27)
          (name "2" (effects (font (size 1.27 1.27))))
          (number "2" (effects (font (size 1.27 1.27))))
        )
        (pin passive line (at 0 -3.81 90) (length 1.27)
          (name "3" (effects (font (size 1.27 1.27))))
          (number "3" (effects (font (size 1.27 1.27))))
        )
      )
    )
    (symbol "Diode:1N4148" (pin_numbers hide) (pin_names (offset 1.016) hide) (in_bom yes) (on_board yes)
      (property "Reference" "D" (id 0) (at 0 2.54 0)
        (effects (font (size 1.27 1.27)))
      )
      (property "Value" "1N4148" (id 1) (at 0 -2.54 0)
        (effects (font (size 1.27 1.27)))
      )
      (property "Footprint" "Diode_THT:D_DO-35_SOD27_P7.62mm_Horizontal" (id 2) (at 0 -4.445 0)
        (effects (font (size 1.27 1.27)) hide)
      )
      (property "Datasheet" "https://assets.nexperia.com/documents/data-sheet/1N4148_1N4448.pdf" (id 3) (at 0 0 0)
        (effects (font (size 1.27 1.27)) hide)
      )
      (property "ki_keywords" "diode" (id 4) (at 0 0 0)
        (effects (font (size 1.27 1.27)) hide)
      )
      (property "ki_description" "100V 0.15A standard switching diode, DO-35" (id 5) (at 0 0 0)
        (effects (font (size 1.27 1.27)) hide)
      )
      (property "ki_fp_filters" "D*DO?35*" (id 6) (at 0 0 0)
        (effects (font (size 1.27 1.27)) hide)
      )
      (symbol "1N4148_0_1"
        (polyline
          (pts
            (xy -1.27 1.27)
            (xy -1.27 -1.27)
          )
          (stroke (width 0.254) (type default) (color 0 0 0 0))
          (fill (type none))
        )
        (polyline
          (pts
            (xy 1.27 0)
            (xy -1.27 0)
          )
          (stroke (width 0) (type default) (color 0 0 0 0))
          (fill (type none))
        )
        (polyline
          (pts
            (xy 1.27 1.27)
            (xy 1.27 -1.27)
            (xy -1.27 0)
            (xy 1.27 1.27)
          )
          (stroke (width 0.254) (type default) (color 0 0 0 0))
          (fill (type none))
        )
      )
      (symbol "1N4148_1_1"
        (pin passive line (at -3.81 0 0) (length 2.54)
          (name "K" (effects (font (size 1.27 1.27))))
          (number "1" (effects (font (size 1.27 1.27))))
        )
        (pin passive line (at 3.81 0 180) (length 2.54)
          (name "A" (effects (font (size 1.27 1.27))))
          (number "2" (effects (font (size 1.27 1.27))))
        )
      )
    )
    (symbol "Mechanical:MountingHole" (pin_names (offset 1.016)) (in_bom yes) (on_board yes)
      (property "Reference" "H" (id 0) (at 0 5.08 0)
        (effects (font (size 1.27 1.27)))
      )
      (property "Value" "MountingHole" (id 1) (at 0 3.175 0)
        (effects (font (size 1.27 1.27)))
      )
      (property "Footprint" "" (id 2) (at 0 0 0)
        (effects (font (size 1.27 1.27)) hide)
      )
      (property "Datasheet" "~" (id 3) (at 0 0 0)
        (effects (font (size 1.27 1.27)) hide)
      )
      (property "ki_keywords" "mounting hole" (id 4) (at 0 0 0)
        (effects (font (size 1.27 1.27)) hide)
      )
      (property "ki_description" "Mounting Hole without connection" (id 5) (at 0 0 0)
        (effects (font (size 1.27 1.27)) hide)
      )
      (property "ki_fp_filters" "MountingHole*" (id 6) (at 0 0 0)
        (effects (font (size 1.27 1.27)) hide)
      )
      (symbol "MountingHole_0_1"
        (circle (center 0 0) (radius 1.27)
          (stroke (width 1.27) (type default) (color 0 0 0 0))
          (fill (type none))
        )
      )
    )
    (symbol "Motor:Motor_DC" (pin_names (offset 0)) (in_bom yes) (on_board yes)
      (property "Reference" "M" (id 0) (at 2.54 2.54 0)
        (effects (font (size 1.27 1.27)) (justify left))
      )
      (property "Value" "Motor_DC" (id 1) (at 2.54 -5.08 0)
        (effects (font (size 1.27 1.27)) (justify left top))
      )
      (property "Footprint" "" (id 2) (at 0 -2.286 0)
        (effects (font (size 1.27 1.27)) hide)
      )
      (property "Datasheet" "~" (id 3) (at 0 -2.286 0)
        (effects (font (size 1.27 1.27)) hide)
      )
      (property "ki_keywords" "DC Motor" (id 4) (at 0 0 0)
        (effects (font (size 1.27 1.27)) hide)
      )
      (property "ki_description" "DC Motor" (id 5) (at 0 0 0)
        (effects (font (size 1.27 1.27)) hide)
      )
      (property "ki_fp_filters" "PinHeader*P2.54mm* TerminalBlock*" (id 6) (at 0 0 0)
        (effects (font (size 1.27 1.27)) hide)
      )
      (symbol "Motor_DC_0_0"
        (polyline
          (pts
            (xy -1.27 -3.302)
            (xy -1.27 0.508)
            (xy 0 -2.032)
            (xy 1.27 0.508)
            (xy 1.27 -3.302)
          )
          (stroke (width 0) (type default) (color 0 0 0 0))
          (fill (type none))
        )
      )
      (symbol "Motor_DC_0_1"
        (circle (center 0 -1.524) (radius 3.2512)
          (stroke (width 0.254) (type default) (color 0 0 0 0))
          (fill (type none))
        )
        (polyline
          (pts
            (xy 0 -7.62)
            (xy 0 -7.112)
          )
          (stroke (width 0) (type default) (color 0 0 0 0))
          (fill (type none))
        )
        (polyline
          (pts
            (xy 0 -4.7752)
            (xy 0 -5.1816)
          )
          (stroke (width 0) (type default) (color 0 0 0 0))
          (fill (type none))
        )
        (polyline
          (pts
            (xy 0 1.7272)
            (xy 0 2.0828)
          )
          (stroke (width 0) (type default) (color 0 0 0 0))
          (fill (type none))
        )
        (polyline
          (pts
            (xy 0 2.032)
            (xy 0 2.54)
          )
          (stroke (width 0) (type default) (color 0 0 0 0))
          (fill (type none))
        )
      )
      (symbol "Motor_DC_1_1"
        (pin passive line (at 0 5.08 270) (length 2.54)
          (name "+" (effects (font (size 1.27 1.27))))
          (number "1" (effects (font (size 1.27 1.27))))
        )
        (pin passive line (at 0 -7.62 90) (length 2.54)
          (name "-" (effects (font (size 1.27 1.27))))
          (number "2" (effects (font (size 1.27 1.27))))
        )
      )
    )
    (symbol "N20_B_DC_1" (in_bom yes) (on_board yes)
      (property "Reference" "J" (id 0) (at 0 0 0)
        (effects (font (size 1.27 1.27)))
      )
      (property "Value" "N20_B_DC_1" (id 1) (at 0 -6.35 0)
        (effects (font (size 1.27 1.27)))
      )
      (property "Footprint" "mini_robot:N20_bracket" (id 2) (at 0 0 0)
        (effects (font (size 1.27 1.27)) hide)
      )
      (property "Datasheet" "" (id 3) (at 0 0 0)
        (effects (font (size 1.27 1.27)) hide)
      )
      (property "ki_description" "motor dc pololu bracket" (id 4) (at 0 0 0)
        (effects (font (size 1.27 1.27)) hide)
      )
      (symbol "N20_B_DC_1_0_0"
        (text "N20 bracket" (at 1.27 -3.81 0)
          (effects (font (size 1.27 1.27)))
        )
      )
      (symbol "N20_B_DC_1_0_1"
        (circle (center -3.81 0) (radius 1.27)
          (stroke (width 0) (type default) (color 0 0 0 0))
          (fill (type none))
        )
        (rectangle (start -3.81 2.54) (end 3.81 -2.54)
          (stroke (width 0) (type default) (color 0 0 0 0))
          (fill (type none))
        )
        (rectangle (start -1.27 2.54) (end 1.27 3.81)
          (stroke (width 0) (type default) (color 0 0 0 0))
          (fill (type none))
        )
        (circle (center 3.81 0) (radius 1.27)
          (stroke (width 0) (type default) (color 0 0 0 0))
          (fill (type none))
        )
      )
    )
    (symbol "Switch:SW_Push_DPDT" (pin_names (offset 0) hide) (in_bom yes) (on_board yes)
      (property "Reference" "SW" (id 0) (at 0 8.89 0)
        (effects (font (size 1.27 1.27)))
      )
      (property "Value" "SW_Push_DPDT" (id 1) (at 0 -10.16 0)
        (effects (font (size 1.27 1.27)))
      )
      (property "Footprint" "" (id 2) (at 0 5.08 0)
        (effects (font (size 1.27 1.27)) hide)
      )
      (property "Datasheet" "~" (id 3) (at 0 5.08 0)
        (effects (font (size 1.27 1.27)) hide)
      )
      (property "ki_keywords" "switch dual-pole double-throw spdt ON-ON" (id 4) (at 0 0 0)
        (effects (font (size 1.27 1.27)) hide)
      )
      (property "ki_description" "Momentary Switch, dual pole double throw" (id 5) (at 0 0 0)
        (effects (font (size 1.27 1.27)) hide)
      )
      (symbol "SW_Push_DPDT_0_0"
        (circle (center -2.032 -5.08) (radius 0.508)
          (stroke (width 0) (type default) (color 0 0 0 0))
          (fill (type none))
        )
        (circle (center -2.032 5.08) (radius 0.508)
          (stroke (width 0) (type default) (color 0 0 0 0))
          (fill (type none))
        )
        (circle (center 2.032 -7.62) (radius 0.508)
          (stroke (width 0) (type default) (color 0 0 0 0))
          (fill (type none))
        )
        (circle (center 2.032 2.54) (radius 0.508)
          (stroke (width 0) (type default) (color 0 0 0 0))
          (fill (type none))
        )
      )
      (symbol "SW_Push_DPDT_0_1"
        (polyline
          (pts
            (xy -1.524 -4.826)
            (xy 2.54 -3.048)
          )
          (stroke (width 0) (type default) (color 0 0 0 0))
          (fill (type none))
        )
        (polyline
          (pts
            (xy -1.524 5.334)
            (xy 2.54 7.112)
          )
          (stroke (width 0) (type default) (color 0 0 0 0))
          (fill (type none))
        )
        (polyline
          (pts
            (xy 0 -2.286)
            (xy 0 -4.064)
          )
          (stroke (width 0) (type default) (color 0 0 0 0))
          (fill (type none))
        )
        (polyline
          (pts
            (xy 0 -1.016)
            (xy 0 0)
          )
          (stroke (width 0) (type default) (color 0 0 0 0))
          (fill (type none))
        )
        (polyline
          (pts
            (xy 0 1.27)
            (xy 0 2.286)
          )
          (stroke (width 0) (type default) (color 0 0 0 0))
          (fill (type none))
        )
        (polyline
          (pts
            (xy 0 3.556)
            (xy 0 4.572)
          )
          (stroke (width 0) (type default) (color 0 0 0 0))
          (fill (type none))
        )
        (polyline
          (pts
            (xy 0 7.874)
            (xy 0 6.096)
          )
          (stroke (width 0) (type default) (color 0 0 0 0))
          (fill (type none))
        )
        (circle (center 2.032 -2.54) (radius 0.508)
          (stroke (width 0) (type default) (color 0 0 0 0))
          (fill (type none))
        )
        (circle (center 2.032 7.62) (radius 0.508)
          (stroke (width 0) (type default) (color 0 0 0 0))
          (fill (type none))
        )
      )
      (symbol "SW_Push_DPDT_1_1"
        (pin passive line (at 5.08 7.62 180) (length 2.54)
          (name "A" (effects (font (size 1.27 1.27))))
          (number "1" (effects (font (size 1.27 1.27))))
        )
        (pin passive line (at -5.08 5.08 0) (length 2.54)
          (name "B" (effects (font (size 1.27 1.27))))
          (number "2" (effects (font (size 1.27 1.27))))
        )
        (pin passive line (at 5.08 2.54 180) (length 2.54)
          (name "C" (effects (font (size 1.27 1.27))))
          (number "3" (effects (font (size 1.27 1.27))))
        )
        (pin passive line (at 5.08 -2.54 180) (length 2.54)
          (name "A" (effects (font (size 1.27 1.27))))
          (number "4" (effects (font (size 1.27 1.27))))
        )
        (pin passive line (at -5.08 -5.08 0) (length 2.54)
          (name "B" (effects (font (size 1.27 1.27))))
          (number "5" (effects (font (size 1.27 1.27))))
        )
        (pin passive line (at 5.08 -7.62 180) (length 2.54)
          (name "C" (effects (font (size 1.27 1.27))))
          (number "6" (effects (font (size 1.27 1.27))))
        )
      )
    )
    (symbol "Transistor_BJT:BC547" (pin_names (offset 0) hide) (in_bom yes) (on_board yes)
      (property "Reference" "Q" (id 0) (at 5.08 1.905 0)
        (effects (font (size 1.27 1.27)) (justify left))
      )
      (property "Value" "BC547" (id 1) (at 5.08 0 0)
        (effects (font (size 1.27 1.27)) (justify left))
      )
      (property "Footprint" "Package_TO_SOT_THT:TO-92_Inline" (id 2) (at 5.08 -1.905 0)
        (effects (font (size 1.27 1.27) italic) (justify left) hide)
      )
      (property "Datasheet" "https://www.onsemi.com/pub/Collateral/BC550-D.pdf" (id 3) (at 0 0 0)
        (effects (font (size 1.27 1.27)) (justify left) hide)
      )
      (property "ki_keywords" "NPN Transistor" (id 4) (at 0 0 0)
        (effects (font (size 1.27 1.27)) hide)
      )
      (property "ki_description" "0.1A Ic, 45V Vce, Small Signal NPN Transistor, TO-92" (id 5) (at 0 0 0)
        (effects (font (size 1.27 1.27)) hide)
      )
      (property "ki_fp_filters" "TO?92*" (id 6) (at 0 0 0)
        (effects (font (size 1.27 1.27)) hide)
      )
      (symbol "BC547_0_1"
        (polyline
          (pts
            (xy 0 0)
            (xy 0.635 0)
          )
          (stroke (width 0) (type default) (color 0 0 0 0))
          (fill (type none))
        )
        (polyline
          (pts
            (xy 0.635 0.635)
            (xy 2.54 2.54)
          )
          (stroke (width 0) (type default) (color 0 0 0 0))
          (fill (type none))
        )
        (polyline
          (pts
            (xy 0.635 -0.635)
            (xy 2.54 -2.54)
            (xy 2.54 -2.54)
          )
          (stroke (width 0) (type default) (color 0 0 0 0))
          (fill (type none))
        )
        (polyline
          (pts
            (xy 0.635 1.905)
            (xy 0.635 -1.905)
            (xy 0.635 -1.905)
          )
          (stroke (width 0.508) (type default) (color 0 0 0 0))
          (fill (type none))
        )
        (polyline
          (pts
            (xy 1.27 -1.778)
            (xy 1.778 -1.27)
            (xy 2.286 -2.286)
            (xy 1.27 -1.778)
            (xy 1.27 -1.778)
          )
          (stroke (width 0) (type default) (color 0 0 0 0))
          (fill (type outline))
        )
        (circle (center 1.27 0) (radius 2.8194)
          (stroke (width 0.254) (type default) (color 0 0 0 0))
          (fill (type none))
        )
      )
      (symbol "BC547_1_1"
        (pin passive line (at 2.54 5.08 270) (length 2.54)
          (name "C" (effects (font (size 1.27 1.27))))
          (number "1" (effects (font (size 1.27 1.27))))
        )
        (pin input line (at -5.08 0 0) (length 5.08)
          (name "B" (effects (font (size 1.27 1.27))))
          (number "2" (effects (font (size 1.27 1.27))))
        )
        (pin passive line (at 2.54 -5.08 90) (length 2.54)
          (name "E" (effects (font (size 1.27 1.27))))
          (number "3" (effects (font (size 1.27 1.27))))
        )
      )
    )
    (symbol "iobrizio_v6:F_WHEEL" (in_bom yes) (on_board yes)
      (property "Reference" "J" (id 0) (at 0 0 0)
        (effects (font (size 1.27 1.27)))
      )
      (property "Value" "F_WHEEL" (id 1) (at 0 0 0)
        (effects (font (size 1.27 1.27)))
      )
      (property "Footprint" "mini_robot:free_wheel" (id 2) (at 0 0 0)
        (effects (font (size 1.27 1.27)) hide)
      )
      (property "Datasheet" "" (id 3) (at 0 0 0)
        (effects (font (size 1.27 1.27)) hide)
      )
      (property "ki_keywords" "wheel rueda" (id 4) (at 0 0 0)
        (effects (font (size 1.27 1.27)) hide)
      )
      (property "ki_description" "free whell rueda loca" (id 5) (at 0 0 0)
        (effects (font (size 1.27 1.27)) hide)
      )
      (symbol "F_WHEEL_0_1"
        (circle (center 0 0) (radius 1.27)
          (stroke (width 0) (type default) (color 0 0 0 0))
          (fill (type none))
        )
        (circle (center 0 0) (radius 2.8398)
          (stroke (width 0) (type default) (color 0 0 0 0))
          (fill (type none))
        )
      )
    )
    (symbol "iobrizio_v6:LOGO" (in_bom yes) (on_board yes)
      (property "Reference" "G" (id 0) (at 0 0 0)
        (effects (font (size 1.27 1.27)))
      )
      (property "Value" "LOGO" (id 1) (at 0 0 0)
        (effects (font (size 1.27 1.27)))
      )
      (property "Footprint" "" (id 2) (at 0 0 0)
        (effects (font (size 1.27 1.27)) hide)
      )
      (property "Datasheet" "" (id 3) (at 0 0 0)
        (effects (font (size 1.27 1.27)) hide)
      )
      (symbol "LOGO_0_0"
        (text "LOGO" (at 0 0 0)
          (effects (font (size 1.27 1.27)))
        )
      )
      (symbol "LOGO_0_1"
        (rectangle (start -2.54 1.27) (end 2.54 -1.27)
          (stroke (width 0) (type default) (color 0 0 0 0))
          (fill (type none))
        )
      )
    )
    (symbol "power:+5V" (power) (pin_names (offset 0)) (in_bom yes) (on_board yes)
      (property "Reference" "#PWR" (id 0) (at 0 -3.81 0)
        (effects (font (size 1.27 1.27)) hide)
      )
      (property "Value" "+5V" (id 1) (at 0 3.556 0)
        (effects (font (size 1.27 1.27)))
      )
      (property "Footprint" "" (id 2) (at 0 0 0)
        (effects (font (size 1.27 1.27)) hide)
      )
      (property "Datasheet" "" (id 3) (at 0 0 0)
        (effects (font (size 1.27 1.27)) hide)
      )
      (property "ki_keywords" "power-flag" (id 4) (at 0 0 0)
        (effects (font (size 1.27 1.27)) hide)
      )
      (property "ki_description" "Power symbol creates a global label with name \"+5V\"" (id 5) (at 0 0 0)
        (effects (font (size 1.27 1.27)) hide)
      )
      (symbol "+5V_0_1"
        (polyline
          (pts
            (xy -0.762 1.27)
            (xy 0 2.54)
          )
          (stroke (width 0) (type default) (color 0 0 0 0))
          (fill (type none))
        )
        (polyline
          (pts
            (xy 0 0)
            (xy 0 2.54)
          )
          (stroke (width 0) (type default) (color 0 0 0 0))
          (fill (type none))
        )
        (polyline
          (pts
            (xy 0 2.54)
            (xy 0.762 1.27)
          )
          (stroke (width 0) (type default) (color 0 0 0 0))
          (fill (type none))
        )
      )
      (symbol "+5V_1_1"
        (pin power_in line (at 0 0 90) (length 0) hide
          (name "+5V" (effects (font (size 1.27 1.27))))
          (number "1" (effects (font (size 1.27 1.27))))
        )
      )
    )
    (symbol "power:GND" (power) (pin_names (offset 0)) (in_bom yes) (on_board yes)
      (property "Reference" "#PWR" (id 0) (at 0 -6.35 0)
        (effects (font (size 1.27 1.27)) hide)
      )
      (property "Value" "GND" (id 1) (at 0 -3.81 0)
        (effects (font (size 1.27 1.27)))
      )
      (property "Footprint" "" (id 2) (at 0 0 0)
        (effects (font (size 1.27 1.27)) hide)
      )
      (property "Datasheet" "" (id 3) (at 0 0 0)
        (effects (font (size 1.27 1.27)) hide)
      )
      (property "ki_keywords" "power-flag" (id 4) (at 0 0 0)
        (effects (font (size 1.27 1.27)) hide)
      )
      (property "ki_description" "Power symbol creates a global label with name \"GND\" , ground" (id 5) (at 0 0 0)
        (effects (font (size 1.27 1.27)) hide)
      )
      (symbol "GND_0_1"
        (polyline
          (pts
            (xy 0 0)
            (xy 0 -1.27)
            (xy 1.27 -1.27)
            (xy 0 -2.54)
            (xy -1.27 -1.27)
            (xy 0 -1.27)
          )
          (stroke (width 0) (type default) (color 0 0 0 0))
          (fill (type none))
        )
      )
      (symbol "GND_1_1"
        (pin power_in line (at 0 0 270) (length 0) hide
          (name "GND" (effects (font (size 1.27 1.27))))
          (number "1" (effects (font (size 1.27 1.27))))
        )
      )
    )
    (symbol "power:PWR_FLAG" (power) (pin_numbers hide) (pin_names (offset 0) hide) (in_bom yes) (on_board yes)
      (property "Reference" "#FLG" (id 0) (at 0 1.905 0)
        (effects (font (size 1.27 1.27)) hide)
      )
      (property "Value" "PWR_FLAG" (id 1) (at 0 3.81 0)
        (effects (font (size 1.27 1.27)))
      )
      (property "Footprint" "" (id 2) (at 0 0 0)
        (effects (font (size 1.27 1.27)) hide)
      )
      (property "Datasheet" "~" (id 3) (at 0 0 0)
        (effects (font (size 1.27 1.27)) hide)
      )
      (property "ki_keywords" "power-flag" (id 4) (at 0 0 0)
        (effects (font (size 1.27 1.27)) hide)
      )
      (property "ki_description" "Special symbol for telling ERC where power comes from" (id 5) (at 0 0 0)
        (effects (font (size 1.27 1.27)) hide)
      )
      (symbol "PWR_FLAG_0_0"
        (pin power_out line (at 0 0 90) (length 0)
          (name "pwr" (effects (font (size 1.27 1.27))))
          (number "1" (effects (font (size 1.27 1.27))))
        )
      )
      (symbol "PWR_FLAG_0_1"
        (polyline
          (pts
            (xy 0 0)
            (xy 0 1.27)
            (xy -1.016 1.905)
            (xy 0 2.54)
            (xy 1.016 1.905)
            (xy 0 1.27)
          )
          (stroke (width 0) (type default) (color 0 0 0 0))
          (fill (type none))
        )
      )
    )
  )


  (junction (at 241.935 34.925) (diameter 0) (color 0 0 0 0)
    (uuid 08254dbd-b698-4917-8904-3e0b6ad248fb)
  )
  (junction (at 241.935 98.425) (diameter 0) (color 0 0 0 0)
    (uuid 2f99f7f7-095b-4a23-a5fa-86badf29d5ed)
  )
  (junction (at 167.005 66.675) (diameter 0) (color 0 0 0 0)
    (uuid 3203530e-8c94-4c73-9de5-e1c4213615b0)
  )
  (junction (at 227.965 98.425) (diameter 0) (color 0 0 0 0)
    (uuid 342537dd-d73a-4ee6-b7c1-0ad55da70049)
  )
  (junction (at 76.2 129.54) (diameter 0) (color 0 0 0 0)
    (uuid 4034fae1-fb14-4226-9b76-d4232a1413ef)
  )
  (junction (at 87.63 109.22) (diameter 0) (color 0 0 0 0)
    (uuid 54dcff01-f34c-4c58-8129-7d2109650b34)
  )
  (junction (at 97.79 66.04) (diameter 0) (color 0 0 0 0)
    (uuid 6500cf9d-e2b8-43d4-a0ca-274b25a07b54)
  )
  (junction (at 241.935 125.095) (diameter 0) (color 0 0 0 0)
    (uuid 6f19d219-5874-402e-ada4-fedc8fe60d89)
  )
  (junction (at 122.555 51.435) (diameter 0) (color 0 0 0 0)
    (uuid 7d6c5239-9f90-4b86-ae57-8be9df0770cf)
  )
  (junction (at 227.965 34.925) (diameter 0) (color 0 0 0 0)
    (uuid 85a9aa21-4018-4580-9eb8-4204acd15bb0)
  )
  (junction (at 122.555 66.675) (diameter 0) (color 0 0 0 0)
    (uuid a701b606-eca9-4fe2-a0ab-0867a3a0b42f)
  )
  (junction (at 227.965 61.595) (diameter 0) (color 0 0 0 0)
    (uuid bc3cf1c9-21e5-41ac-a860-04a6c449dfac)
  )
  (junction (at 76.2 109.22) (diameter 0) (color 0 0 0 0)
    (uuid bd1e31ff-d4c1-4caf-870e-3b0e6936a811)
  )
  (junction (at 68.58 63.5) (diameter 0) (color 0 0 0 0)
    (uuid bfae9f3a-2e59-4cfa-96ac-3d86b100a1b8)
  )
  (junction (at 122.555 92.075) (diameter 0) (color 0 0 0 0)
    (uuid ced64d16-b307-4491-a2e3-3dc64350f473)
  )
  (junction (at 227.965 125.095) (diameter 0) (color 0 0 0 0)
    (uuid d7172e4d-8e1d-4c85-bcff-439381cf3a90)
  )
  (junction (at 241.935 61.595) (diameter 0) (color 0 0 0 0)
    (uuid f05675e9-1e48-45f9-89df-fa9994466bd6)
  )
  (junction (at 174.625 83.185) (diameter 0) (color 0 0 0 0)
    (uuid fc99df9d-3eae-41e7-86ab-5e3febaa5b33)
  )
  (junction (at 87.63 129.54) (diameter 0) (color 0 0 0 0)
    (uuid fed930c9-7381-477e-a974-0910454a19ca)
  )

  (no_connect (at 86.36 71.12) (uuid c9387004-8b9a-40e7-9543-4cd565ea0e1d))
  (no_connect (at 86.36 60.96) (uuid c9387004-8b9a-40e7-9543-4cd565ea0e1d))

  (wire (pts (xy 167.005 66.675) (xy 167.005 130.175))
    (stroke (width 0) (type default) (color 0 0 0 0))
    (uuid 0a3c7f25-f1d3-4a86-9224-7440d64a87e8)
  )
  (polyline (pts (xy 38.1 71.12) (xy 38.1 73.66))
    (stroke (width 0.5) (type solid) (color 0 0 0 0))
    (uuid 168ed392-01a4-43e8-9598-c3841a2d3cb1)
  )

  (wire (pts (xy 227.965 34.925) (xy 227.965 37.465))
    (stroke (width 0) (type default) (color 0 0 0 0))
    (uuid 19a8b63a-779b-4b00-8add-8a2cd53ece1c)
  )
  (wire (pts (xy 122.555 86.995) (xy 122.555 92.075))
    (stroke (width 0) (type default) (color 0 0 0 0))
    (uuid 1a89e8cd-7312-43ff-bd27-10f2210f487e)
  )
  (wire (pts (xy 241.935 61.595) (xy 241.935 55.245))
    (stroke (width 0) (type default) (color 0 0 0 0))
    (uuid 2055121a-3c4e-4cac-836e-50607d9bb510)
  )
  (wire (pts (xy 76.2 73.66) (xy 68.58 73.66))
    (stroke (width 0) (type default) (color 0 0 0 0))
    (uuid 20a81d20-63b3-47b4-b6e3-c819fa84619a)
  )
  (wire (pts (xy 227.965 98.425) (xy 241.935 98.425))
    (stroke (width 0) (type default) (color 0 0 0 0))
    (uuid 25fc7484-491e-43e0-bd7c-d028fb2ba319)
  )
  (wire (pts (xy 227.965 61.595) (xy 227.965 64.135))
    (stroke (width 0) (type default) (color 0 0 0 0))
    (uuid 2bfd0b58-86e5-4f6e-9ee2-57cf0fdc87a5)
  )
  (wire (pts (xy 76.2 129.54) (xy 87.63 129.54))
    (stroke (width 0) (type default) (color 0 0 0 0))
    (uuid 2c1173f6-b08f-4607-ab69-344ac6155833)
  )
  (wire (pts (xy 87.63 123.19) (xy 87.63 129.54))
    (stroke (width 0) (type default) (color 0 0 0 0))
    (uuid 30e33f3c-3f5c-487e-9b4f-dd768b5ea833)
  )
  (wire (pts (xy 227.965 45.085) (xy 227.965 48.895))
    (stroke (width 0) (type default) (color 0 0 0 0))
    (uuid 36c1ea90-6a72-4a4f-aa7b-05f8a096e0ac)
  )
  (wire (pts (xy 258.445 61.595) (xy 258.445 52.705))
    (stroke (width 0) (type default) (color 0 0 0 0))
    (uuid 3a216995-b6d8-4e68-9c6b-59eb35957695)
  )
  (polyline (pts (xy 35.56 68.58) (xy 40.64 68.58))
    (stroke (width 0.5) (type solid) (color 0 0 0 0))
    (uuid 3b755013-6af4-4ef2-a97f-b67e1d270cd0)
  )
  (polyline (pts (xy 38.1 63.5) (xy 38.1 66.04))
    (stroke (width 0.5) (type solid) (color 0 0 0 0))
    (uuid 3cdd27a9-f4aa-494a-b411-f286ef7f563d)
  )

  (wire (pts (xy 258.445 125.095) (xy 258.445 116.205))
    (stroke (width 0) (type default) (color 0 0 0 0))
    (uuid 41694ddf-f560-494c-b4e6-60e643e11b39)
  )
  (polyline (pts (xy 33.02 66.04) (xy 43.18 66.04))
    (stroke (width 0.5) (type solid) (color 0 0 0 0))
    (uuid 4219da77-b685-452a-acc1-f7a0fe9a5d73)
  )

  (wire (pts (xy 122.555 66.675) (xy 122.555 79.375))
    (stroke (width 0) (type default) (color 0 0 0 0))
    (uuid 42fdaf50-6fa0-4325-8503-ef4174de307c)
  )
  (wire (pts (xy 57.15 66.04) (xy 57.15 73.66))
    (stroke (width 0) (type default) (color 0 0 0 0))
    (uuid 43ad40b0-bec4-4477-9f9b-713fcb8218fb)
  )
  (wire (pts (xy 167.005 66.675) (xy 182.245 66.675))
    (stroke (width 0) (type default) (color 0 0 0 0))
    (uuid 468e5b6e-3dbe-48b4-8f0f-d3fc3fc586b7)
  )
  (wire (pts (xy 241.935 98.425) (xy 241.935 106.045))
    (stroke (width 0) (type default) (color 0 0 0 0))
    (uuid 4a05b583-832c-40f7-b98c-7a81c6beb580)
  )
  (wire (pts (xy 68.58 63.5) (xy 76.2 63.5))
    (stroke (width 0) (type default) (color 0 0 0 0))
    (uuid 4c5033fc-d432-4e72-8df7-c87db0c40f91)
  )
  (wire (pts (xy 122.555 47.625) (xy 122.555 51.435))
    (stroke (width 0) (type default) (color 0 0 0 0))
    (uuid 511f3e06-8e12-4701-ab9d-b334fc302cdf)
  )
  (wire (pts (xy 147.955 92.075) (xy 147.955 86.995))
    (stroke (width 0) (type default) (color 0 0 0 0))
    (uuid 532470fb-0dc1-4e51-be2b-2be9b184e3aa)
  )
  (wire (pts (xy 87.63 109.22) (xy 87.63 115.57))
    (stroke (width 0) (type default) (color 0 0 0 0))
    (uuid 5a27044c-d542-45a6-b16f-59473d9a8d3c)
  )
  (wire (pts (xy 122.555 92.075) (xy 147.955 92.075))
    (stroke (width 0) (type default) (color 0 0 0 0))
    (uuid 5f73a2ed-4a03-4a92-bd10-c6cd08289c0a)
  )
  (wire (pts (xy 227.965 34.925) (xy 241.935 34.925))
    (stroke (width 0) (type default) (color 0 0 0 0))
    (uuid 601e367c-55df-432c-a02d-79b978f2ee5c)
  )
  (wire (pts (xy 196.215 132.715) (xy 210.185 132.715))
    (stroke (width 0) (type default) (color 0 0 0 0))
    (uuid 6a125f99-b670-4c60-b415-a6556654e105)
  )
  (wire (pts (xy 241.935 34.925) (xy 241.935 42.545))
    (stroke (width 0) (type default) (color 0 0 0 0))
    (uuid 6fba3e19-3a5e-44a9-917a-380a6fc0c1c8)
  )
  (wire (pts (xy 227.965 74.295) (xy 227.965 79.375))
    (stroke (width 0) (type default) (color 0 0 0 0))
    (uuid 7062eec7-b8e2-4710-a6f4-4ecc40a3ed5c)
  )
  (wire (pts (xy 227.965 125.095) (xy 227.965 120.015))
    (stroke (width 0) (type default) (color 0 0 0 0))
    (uuid 70e6a77d-6c2b-4658-84ae-2167ecb08732)
  )
  (wire (pts (xy 52.07 107.95) (xy 52.07 111.76))
    (stroke (width 0) (type default) (color 0 0 0 0))
    (uuid 71ae3392-b00b-4be2-b663-fcb5e2b62e5b)
  )
  (wire (pts (xy 217.805 132.715) (xy 220.345 132.715))
    (stroke (width 0) (type default) (color 0 0 0 0))
    (uuid 7244c5a7-e0ea-4542-bb1d-7a598aa8bedf)
  )
  (wire (pts (xy 227.965 33.655) (xy 227.965 34.925))
    (stroke (width 0) (type default) (color 0 0 0 0))
    (uuid 727be08d-a179-487f-9502-d73b1ba12959)
  )
  (wire (pts (xy 227.965 97.155) (xy 227.965 98.425))
    (stroke (width 0) (type default) (color 0 0 0 0))
    (uuid 76b5c34b-869e-4b28-bc9d-2a7b9e79c29e)
  )
  (wire (pts (xy 241.935 125.095) (xy 258.445 125.095))
    (stroke (width 0) (type default) (color 0 0 0 0))
    (uuid 79db240d-9612-4f89-9692-5a027e4d42fe)
  )
  (wire (pts (xy 97.79 63.5) (xy 97.79 66.04))
    (stroke (width 0) (type default) (color 0 0 0 0))
    (uuid 7a1f25e2-5c2d-45f4-904f-880cd5ddafe4)
  )
  (wire (pts (xy 86.36 66.04) (xy 97.79 66.04))
    (stroke (width 0) (type default) (color 0 0 0 0))
    (uuid 7b9bafcf-ff4d-4cd3-9253-d831f58e1c68)
  )
  (wire (pts (xy 147.955 79.375) (xy 147.955 51.435))
    (stroke (width 0) (type default) (color 0 0 0 0))
    (uuid 7c665576-1ee3-4572-ace4-c518413c36cf)
  )
  (wire (pts (xy 227.965 98.425) (xy 227.965 100.965))
    (stroke (width 0) (type default) (color 0 0 0 0))
    (uuid 7dc74f60-4502-4a0c-8d23-029f4fbd0a9e)
  )
  (polyline (pts (xy 38.1 68.58) (xy 38.1 71.12))
    (stroke (width 0.5) (type solid) (color 0 0 0 0))
    (uuid 7e59e51c-bb90-499e-a2a8-fe57cb7a46bd)
  )

  (wire (pts (xy 76.2 109.22) (xy 87.63 109.22))
    (stroke (width 0) (type default) (color 0 0 0 0))
    (uuid 80d67f52-2ded-43bd-8a31-2efce06698ec)
  )
  (polyline (pts (xy 38.1 60.96) (xy 38.1 63.5))
    (stroke (width 0.5) (type solid) (color 0 0 0 0))
    (uuid 86f7add7-133e-4e8e-abd8-3b9269171e47)
  )

  (wire (pts (xy 227.965 125.095) (xy 227.965 127.635))
    (stroke (width 0) (type default) (color 0 0 0 0))
    (uuid 8aa1f6a9-9bdd-4e95-b3f8-b7cfe58b486f)
  )
  (wire (pts (xy 122.555 51.435) (xy 147.955 51.435))
    (stroke (width 0) (type default) (color 0 0 0 0))
    (uuid 8defd7fa-4f3e-463e-80fe-a61c4cda154a)
  )
  (wire (pts (xy 241.935 34.925) (xy 258.445 34.925))
    (stroke (width 0) (type default) (color 0 0 0 0))
    (uuid 8dff7701-e5e7-4c22-a117-e83318e38a98)
  )
  (wire (pts (xy 174.625 71.755) (xy 182.245 71.755))
    (stroke (width 0) (type default) (color 0 0 0 0))
    (uuid 92db4a2d-7f82-48cb-862a-46b7b362633f)
  )
  (wire (pts (xy 122.555 61.595) (xy 122.555 66.675))
    (stroke (width 0) (type default) (color 0 0 0 0))
    (uuid 9539b5e7-d290-40ad-a1c1-a8263aa3c3e3)
  )
  (wire (pts (xy 122.555 51.435) (xy 122.555 53.975))
    (stroke (width 0) (type default) (color 0 0 0 0))
    (uuid 96c14a55-d399-4e7e-bfee-4370c7beb74a)
  )
  (wire (pts (xy 97.79 76.2) (xy 97.79 66.04))
    (stroke (width 0) (type default) (color 0 0 0 0))
    (uuid 98bb12ae-5615-49bb-a21d-58a5bdaaf7bd)
  )
  (wire (pts (xy 68.58 73.66) (xy 68.58 63.5))
    (stroke (width 0) (type default) (color 0 0 0 0))
    (uuid 9a8e5365-5d60-44e4-81cc-4f11e0761eee)
  )
  (wire (pts (xy 76.2 106.68) (xy 76.2 109.22))
    (stroke (width 0) (type default) (color 0 0 0 0))
    (uuid a110e411-94b8-4476-89a1-e50855fd7df4)
  )
  (wire (pts (xy 52.07 66.04) (xy 57.15 66.04))
    (stroke (width 0) (type default) (color 0 0 0 0))
    (uuid a13234a4-44ed-4ae0-aed0-b3d4cb98b8a2)
  )
  (wire (pts (xy 174.625 83.185) (xy 174.625 135.255))
    (stroke (width 0) (type default) (color 0 0 0 0))
    (uuid a5478fe5-8f8e-44dd-8c12-edd92bab385c)
  )
  (wire (pts (xy 227.965 125.095) (xy 241.935 125.095))
    (stroke (width 0) (type default) (color 0 0 0 0))
    (uuid acf39ce5-1b36-49a9-befb-91c6985b0534)
  )
  (wire (pts (xy 258.445 108.585) (xy 258.445 98.425))
    (stroke (width 0) (type default) (color 0 0 0 0))
    (uuid afa676da-10bb-4485-8440-4f69a6cd43b6)
  )
  (wire (pts (xy 52.07 63.5) (xy 68.58 63.5))
    (stroke (width 0) (type default) (color 0 0 0 0))
    (uuid b49774da-604d-4998-8c4c-5fba059de634)
  )
  (wire (pts (xy 151.765 83.185) (xy 174.625 83.185))
    (stroke (width 0) (type default) (color 0 0 0 0))
    (uuid b866cc60-ba54-4ddc-ba73-041a37c2c80b)
  )
  (wire (pts (xy 76.2 129.54) (xy 76.2 132.08))
    (stroke (width 0) (type default) (color 0 0 0 0))
    (uuid bb550d00-486b-442d-9a92-594eda541dd0)
  )
  (wire (pts (xy 227.965 61.595) (xy 241.935 61.595))
    (stroke (width 0) (type default) (color 0 0 0 0))
    (uuid bb94b63d-0744-4861-9570-a88b0675521e)
  )
  (wire (pts (xy 258.445 45.085) (xy 258.445 34.925))
    (stroke (width 0) (type default) (color 0 0 0 0))
    (uuid bc2cbad5-b4d6-41ce-911b-73af39517d7a)
  )
  (wire (pts (xy 227.965 108.585) (xy 227.965 112.395))
    (stroke (width 0) (type default) (color 0 0 0 0))
    (uuid be8d685c-e85c-4988-9cbb-4db55fb14d87)
  )
  (wire (pts (xy 217.805 69.215) (xy 220.345 69.215))
    (stroke (width 0) (type default) (color 0 0 0 0))
    (uuid c6b81ec9-abc1-4982-911f-45741fee2d12)
  )
  (wire (pts (xy 52.07 119.38) (xy 52.07 123.19))
    (stroke (width 0) (type default) (color 0 0 0 0))
    (uuid cabbf877-36b0-48e4-88de-783bf53666ea)
  )
  (wire (pts (xy 241.935 98.425) (xy 258.445 98.425))
    (stroke (width 0) (type default) (color 0 0 0 0))
    (uuid ce894b92-cfa8-48d3-a740-b3403287bc88)
  )
  (wire (pts (xy 122.555 92.075) (xy 122.555 96.52))
    (stroke (width 0) (type default) (color 0 0 0 0))
    (uuid d2b46a2b-ec68-4180-823a-dbe80300c63f)
  )
  (wire (pts (xy 241.935 125.095) (xy 241.935 118.745))
    (stroke (width 0) (type default) (color 0 0 0 0))
    (uuid d7739700-9a75-4b42-8a24-2253e14bc712)
  )
  (wire (pts (xy 76.2 109.22) (xy 76.2 111.76))
    (stroke (width 0) (type default) (color 0 0 0 0))
    (uuid ddcb8cd4-cc7d-4267-8d09-9fa061a3c486)
  )
  (wire (pts (xy 86.36 76.2) (xy 97.79 76.2))
    (stroke (width 0) (type default) (color 0 0 0 0))
    (uuid e0366eb1-4c6e-467d-818e-41b6dde3bb28)
  )
  (wire (pts (xy 197.485 69.215) (xy 210.185 69.215))
    (stroke (width 0) (type default) (color 0 0 0 0))
    (uuid e2bf80a8-9216-4889-bb81-899b37136608)
  )
  (wire (pts (xy 122.555 66.675) (xy 167.005 66.675))
    (stroke (width 0) (type default) (color 0 0 0 0))
    (uuid eca1af2b-ff9c-422c-941c-5d9be7a4ca4d)
  )
  (wire (pts (xy 174.625 135.255) (xy 180.975 135.255))
    (stroke (width 0) (type default) (color 0 0 0 0))
    (uuid f08831bb-c356-4729-a9f9-ff606326420b)
  )
  (wire (pts (xy 76.2 127) (xy 76.2 129.54))
    (stroke (width 0) (type default) (color 0 0 0 0))
    (uuid fa762245-af75-45cd-80fd-60108c057ec9)
  )
  (wire (pts (xy 227.965 61.595) (xy 227.965 56.515))
    (stroke (width 0) (type default) (color 0 0 0 0))
    (uuid fbd585bf-d10a-4dd1-8376-37b44559ea73)
  )
  (wire (pts (xy 180.975 130.175) (xy 167.005 130.175))
    (stroke (width 0) (type default) (color 0 0 0 0))
    (uuid fc4c3e53-c8d8-4232-8259-9e04210aff93)
  )
  (wire (pts (xy 174.625 83.185) (xy 174.625 71.755))
    (stroke (width 0) (type default) (color 0 0 0 0))
    (uuid fd8abe07-df5c-461b-878d-38281ca61625)
  )
  (wire (pts (xy 227.965 137.795) (xy 227.965 142.875))
    (stroke (width 0) (type default) (color 0 0 0 0))
    (uuid ff2a95d3-d89a-47ea-b158-aa6cb700887b)
  )
  (wire (pts (xy 241.935 61.595) (xy 258.445 61.595))
    (stroke (width 0) (type default) (color 0 0 0 0))
    (uuid ff3039b4-ed9b-4ae1-9ede-fd1c0d4d2dde)
  )

  (text "ON/OFF SWITCH" (at 68.58 88.9 0)
    (effects (font (size 2.54 2.54)) (justify left bottom))
    (uuid 02910490-7310-49f9-a0ad-041711e45745)
  )
  (text "Bulk" (at 55.245 123.19 0)
    (effects (font (size 1.27 1.27)) (justify left bottom))
    (uuid 0f1f79b3-2288-4bcd-9637-7bf495f55957)
  )
  (text "CONTROL" (at 183.515 145.415 0)
    (effects (font (size 2.54 2.54)) (justify left bottom))
    (uuid 27901696-c80d-40d0-b527-e124eb6961a9)
  )
  (text "INPUT" (at 122.555 112.395 0)
    (effects (font (size 2.54 2.54)) (justify left bottom))
    (uuid 7ba9a7d4-c6c8-404a-863d-c0e445ccd889)
  )
  (text "Mechanical" (at 38.1 167.64 0)
    (effects (font (size 2.54 2.54)) (justify left bottom))
    (uuid 81ed58e6-c3fc-4f1e-a4d1-6bd5b00dd0b0)
  )
  (text "POWER_OUT" (at 233.045 144.145 0)
    (effects (font (size 2.54 2.54)) (justify left bottom))
    (uuid a4911df7-cf67-4b88-b00a-46835d73b4dc)
  )
  (text "Close to IC" (at 89.535 125.095 0)
    (effects (font (size 1.27 1.27)) (justify left bottom))
    (uuid aab143cb-10dc-42f7-8729-f1f6afc63d1c)
  )
  (text "GND" (at 27.94 73.66 0)
    (effects (font (size 2 2)) (justify left bottom))
    (uuid b2da1b0d-397b-4636-95f7-46103fbc0ee4)
  )
  (text "Inom = 60mA" (at 243.84 41.91 0)
    (effects (font (size 1.27 1.27)) (justify left bottom))
    (uuid bd110c1c-2fda-49df-a076-66f50dadb989)
  )
  (text "+5v" (at 27.94 63.5 0)
    (effects (font (size 2 2)) (justify left bottom))
    (uuid c8da32e3-596f-46e3-b67e-df3dbe45a2d4)
  )
  (text "Free wheel" (at 73.66 182.88 0)
    (effects (font (size 1.27 1.27)) (justify left bottom))
    (uuid e5fff7d5-a303-4136-824b-2726506e242e)
  )

  (label "VIN" (at 55.245 63.5 0)
    (effects (font (size 1.27 1.27)) (justify left bottom))
    (uuid 0c43492a-1d06-42e1-aab3-dafca109a963)
  )
  (label "VREF" (at 156.21 83.185 0)
    (effects (font (size 1.27 1.27) (thickness 0.254) bold) (justify left bottom))
    (uuid 0f7f8cce-a544-4e28-adab-b006ffe43089)
  )
  (label "C_B" (at 233.045 125.095 0)
    (effects (font (size 1.27 1.27)) (justify left bottom))
    (uuid 527d4dcf-e201-4c23-87f3-3003bb97798a)
  )
  (label "OUT_A" (at 201.295 69.215 0)
    (effects (font (size 1.27 1.27) (thickness 0.254) bold) (justify left bottom))
    (uuid 83b191de-48a5-4d4c-a74f-373ba35f1d32)
  )
  (label "C_A" (at 232.41 61.595 0)
    (effects (font (size 1.27 1.27)) (justify left bottom))
    (uuid a5b6c8b4-40d2-45e8-a200-5cecfba29b0d)
  )
  (label "OUT_B" (at 201.295 132.715 0)
    (effects (font (size 1.27 1.27) (thickness 0.254) bold) (justify left bottom))
    (uuid a9f2e03e-dfbd-422e-b151-8bdb0313080c)
  )
  (label "SENSOR" (at 154.94 66.675 0)
    (effects (font (size 1.27 1.27) (thickness 0.254) bold) (justify left bottom))
    (uuid e4be26cf-6fb9-48b0-93b5-b2835a70329e)
  )

  (symbol (lib_id "Diode:1N4148") (at 258.445 48.895 270) (unit 1)
    (in_bom yes) (on_board yes) (fields_autoplaced)
    (uuid 045adada-d379-4b72-868b-e79a9073060a)
    (property "Reference" "D3" (id 0) (at 260.985 47.6249 90)
      (effects (font (size 1.27 1.27)) (justify left))
    )
    (property "Value" "1N4148" (id 1) (at 260.985 50.1649 90)
      (effects (font (size 1.27 1.27)) (justify left))
    )
    (property "Footprint" "Diode_THT:D_A-405_P10.16mm_Horizontal" (id 2) (at 254 48.895 0)
      (effects (font (size 1.27 1.27)) hide)
    )
    (property "Datasheet" "https://assets.nexperia.com/documents/data-sheet/1N4148_1N4448.pdf" (id 3) (at 258.445 48.895 0)
      (effects (font (size 1.27 1.27)) hide)
    )
    (pin "1" (uuid 61a55e3a-73e1-4b5e-9e35-63f792c09229))
    (pin "2" (uuid ecdf58a1-c9b4-4d20-96f4-fc313b8fbed8))
  )

  (symbol (lib_id "power:GND") (at 57.15 73.66 0) (unit 1)
    (in_bom yes) (on_board yes) (fields_autoplaced)
    (uuid 069da37a-b3e1-45bb-882f-da69feba4c27)
    (property "Reference" "#PWR03" (id 0) (at 57.15 80.01 0)
      (effects (font (size 1.27 1.27)) hide)
    )
    (property "Value" "GND" (id 1) (at 57.15 78.74 0))
    (property "Footprint" "" (id 2) (at 57.15 73.66 0)
      (effects (font (size 1.27 1.27)) hide)
    )
    (property "Datasheet" "" (id 3) (at 57.15 73.66 0)
      (effects (font (size 1.27 1.27)) hide)
    )
    (pin "1" (uuid 5b860320-7e82-4c09-ae66-0068a56ab04b))
  )

  (symbol (lib_id "Device:R_Photo") (at 122.555 57.785 0) (unit 1)
    (in_bom yes) (on_board yes) (fields_autoplaced)
    (uuid 093a9ff5-ef7a-455c-859a-d2e50ed1f693)
    (property "Reference" "R1" (id 0) (at 125.095 56.5149 0)
      (effects (font (size 1.27 1.27)) (justify left))
    )
    (property "Value" "10k" (id 1) (at 125.095 59.0549 0)
      (effects (font (size 1.27 1.27)) (justify left))
    )
    (property "Footprint" "OptoDevice:R_LDR_5.1x4.3mm_P3.4mm_Vertical" (id 2) (at 123.825 64.135 90)
      (effects (font (size 1.27 1.27)) (justify left) hide)
    )
    (property "Datasheet" "~" (id 3) (at 122.555 59.055 0)
      (effects (font (size 1.27 1.27)) hide)
    )
    (pin "1" (uuid f02cbcc7-7c79-4c46-a462-5c6d2161b046))
    (pin "2" (uuid ff6ee1b6-2582-4f1d-b36e-3e136e0df941))
  )

  (symbol (lib_id "Switch:SW_Push_DPDT") (at 81.28 68.58 0) (unit 1)
    (in_bom yes) (on_board yes) (fields_autoplaced)
    (uuid 0c9cfe70-04f2-4dcc-b75e-d313fbd597fd)
    (property "Reference" "SW1" (id 0) (at 81.28 55.88 0))
    (property "Value" "SW_Push_DPDT" (id 1) (at 81.28 58.42 0))
    (property "Footprint" "Button_Switch_THT:SW_CuK_JS202011CQN_DPDT_Straight" (id 2) (at 81.28 63.5 0)
      (effects (font (size 1.27 1.27)) hide)
    )
    (property "Datasheet" "~" (id 3) (at 81.28 63.5 0)
      (effects (font (size 1.27 1.27)) hide)
    )
    (pin "1" (uuid 99919f16-809b-4d37-b44a-061baa0477d2))
    (pin "2" (uuid c0198b76-87db-42ba-affe-01d58c1285ef))
    (pin "3" (uuid 3542f43a-1f13-4cce-9271-70b566edd0bd))
    (pin "4" (uuid 08fe82a1-1dc6-40a5-87b0-02baf4392d3d))
    (pin "5" (uuid 10731a38-902e-476b-ae21-755798fcd310))
    (pin "6" (uuid 6cb2219f-4347-4694-9a1d-5770372eb2b1))
  )

  (symbol (lib_id "power:GND") (at 76.2 132.08 0) (unit 1)
    (in_bom yes) (on_board yes) (fields_autoplaced)
    (uuid 15146124-2d10-476a-a8e2-45a0553c4301)
    (property "Reference" "#PWR05" (id 0) (at 76.2 138.43 0)
      (effects (font (size 1.27 1.27)) hide)
    )
    (property "Value" "GND" (id 1) (at 76.2 137.16 0))
    (property "Footprint" "" (id 2) (at 76.2 132.08 0)
      (effects (font (size 1.27 1.27)) hide)
    )
    (property "Datasheet" "" (id 3) (at 76.2 132.08 0)
      (effects (font (size 1.27 1.27)) hide)
    )
    (pin "1" (uuid 2a63f417-79aa-42b1-9711-76c6546efc75))
  )

  (symbol (lib_id "Mechanical:MountingHole") (at 40.64 185.42 0) (unit 1)
    (in_bom yes) (on_board yes) (fields_autoplaced)
    (uuid 222f7cc9-3b13-4497-84c5-cf613455c1d0)
    (property "Reference" "H2" (id 0) (at 43.815 184.1499 0)
      (effects (font (size 1.27 1.27)) (justify left))
    )
    (property "Value" "MountingHole" (id 1) (at 43.815 186.6899 0)
      (effects (font (size 1.27 1.27)) (justify left))
    )
    (property "Footprint" "MountingHole:MountingHole_3.2mm_M3" (id 2) (at 40.64 185.42 0)
      (effects (font (size 1.27 1.27)) hide)
    )
    (property "Datasheet" "~" (id 3) (at 40.64 185.42 0)
      (effects (font (size 1.27 1.27)) hide)
    )
  )

  (symbol (lib_id "Device:LED") (at 227.965 116.205 90) (unit 1)
    (in_bom yes) (on_board yes) (fields_autoplaced)
    (uuid 27a0fcfc-f07f-411f-b42d-b83b038e2842)
    (property "Reference" "D2" (id 0) (at 231.775 116.5224 90)
      (effects (font (size 1.27 1.27)) (justify right))
    )
    (property "Value" "RED" (id 1) (at 231.775 119.0624 90)
      (effects (font (size 1.27 1.27)) (justify right))
    )
    (property "Footprint" "LED_THT:LED_D5.0mm" (id 2) (at 227.965 116.205 0)
      (effects (font (size 1.27 1.27)) hide)
    )
    (property "Datasheet" "~" (id 3) (at 227.965 116.205 0)
      (effects (font (size 1.27 1.27)) hide)
    )
    (pin "1" (uuid 0feb073a-d146-4a2d-9dc2-336bf04c0922))
    (pin "2" (uuid 143e3232-b48c-44cf-9d6c-5d23f4f4f30d))
  )

  (symbol (lib_id "Mechanical:MountingHole") (at 40.64 175.26 0) (unit 1)
    (in_bom yes) (on_board yes) (fields_autoplaced)
    (uuid 2e82a47f-b50b-4958-8996-dca8188cd9c9)
    (property "Reference" "H1" (id 0) (at 43.815 173.9899 0)
      (effects (font (size 1.27 1.27)) (justify left))
    )
    (property "Value" "MountingHole" (id 1) (at 43.815 176.5299 0)
      (effects (font (size 1.27 1.27)) (justify left))
    )
    (property "Footprint" "MountingHole:MountingHole_3.2mm_M3" (id 2) (at 40.64 175.26 0)
      (effects (font (size 1.27 1.27)) hide)
    )
    (property "Datasheet" "~" (id 3) (at 40.64 175.26 0)
      (effects (font (size 1.27 1.27)) hide)
    )
  )

  (symbol (lib_id "power:GND") (at 52.07 123.19 0) (unit 1)
    (in_bom yes) (on_board yes) (fields_autoplaced)
    (uuid 364d65db-e03d-4f26-8d29-93a4be69a583)
    (property "Reference" "#PWR02" (id 0) (at 52.07 129.54 0)
      (effects (font (size 1.27 1.27)) hide)
    )
    (property "Value" "GND" (id 1) (at 52.07 128.27 0))
    (property "Footprint" "" (id 2) (at 52.07 123.19 0)
      (effects (font (size 1.27 1.27)) hide)
    )
    (property "Datasheet" "" (id 3) (at 52.07 123.19 0)
      (effects (font (size 1.27 1.27)) hide)
    )
    (pin "1" (uuid cdfd4f23-4312-4e96-9c56-3dca094e7be4))
  )

  (symbol (lib_id "power:GND") (at 122.555 96.52 0) (unit 1)
    (in_bom yes) (on_board yes) (fields_autoplaced)
    (uuid 4937ca3a-7a04-40fa-a3fa-ce7da6a1c4a8)
    (property "Reference" "#PWR08" (id 0) (at 122.555 102.87 0)
      (effects (font (size 1.27 1.27)) hide)
    )
    (property "Value" "GND" (id 1) (at 122.555 101.6 0))
    (property "Footprint" "" (id 2) (at 122.555 96.52 0)
      (effects (font (size 1.27 1.27)) hide)
    )
    (property "Datasheet" "" (id 3) (at 122.555 96.52 0)
      (effects (font (size 1.27 1.27)) hide)
    )
    (pin "1" (uuid 5ab39db4-18e5-472d-a248-bd6cdedfba39))
  )

  (symbol (lib_id "iobrizio_v6:LOGO") (at 104.14 175.26 0) (unit 1)
    (in_bom yes) (on_board yes) (fields_autoplaced)
    (uuid 501bd205-f6e2-4682-8a45-675d34cee38a)
    (property "Reference" "G1" (id 0) (at 107.95 173.9899 0)
      (effects (font (size 1.27 1.27)) (justify left))
    )
    (property "Value" "LOGO" (id 1) (at 107.95 176.5299 0)
      (effects (font (size 1.27 1.27)) (justify left))
    )
    (property "Footprint" "footprints:redes_fab" (id 2) (at 104.14 175.26 0)
      (effects (font (size 1.27 1.27)) hide)
    )
    (property "Datasheet" "" (id 3) (at 104.14 175.26 0)
      (effects (font (size 1.27 1.27)) hide)
    )
  )

  (symbol (lib_id "Device:C") (at 87.63 119.38 0) (unit 1)
    (in_bom yes) (on_board yes) (fields_autoplaced)
    (uuid 51538c9c-edbc-4734-b0c7-559bcfbaddb5)
    (property "Reference" "C2" (id 0) (at 91.44 118.1099 0)
      (effects (font (size 1.27 1.27)) (justify left))
    )
    (property "Value" "100nF" (id 1) (at 91.44 120.6499 0)
      (effects (font (size 1.27 1.27)) (justify left))
    )
    (property "Footprint" "Capacitor_THT:C_Disc_D5.0mm_W2.5mm_P5.00mm" (id 2) (at 88.5952 123.19 0)
      (effects (font (size 1.27 1.27)) hide)
    )
    (property "Datasheet" "~" (id 3) (at 87.63 119.38 0)
      (effects (font (size 1.27 1.27)) hide)
    )
    (pin "1" (uuid 56b88fe8-7c86-4458-810a-f7d5a344a463))
    (pin "2" (uuid 255a17d5-b7be-4fa7-8dff-6376e523b95a))
  )

  (symbol (lib_id "power:+5V") (at 52.07 107.95 0) (unit 1)
    (in_bom yes) (on_board yes) (fields_autoplaced)
    (uuid 52e5ea6b-fed7-4a9c-841b-b73fdfbbcb42)
    (property "Reference" "#PWR01" (id 0) (at 52.07 111.76 0)
      (effects (font (size 1.27 1.27)) hide)
    )
    (property "Value" "+5V" (id 1) (at 52.07 102.87 0))
    (property "Footprint" "" (id 2) (at 52.07 107.95 0)
      (effects (font (size 1.27 1.27)) hide)
    )
    (property "Datasheet" "" (id 3) (at 52.07 107.95 0)
      (effects (font (size 1.27 1.27)) hide)
    )
    (pin "1" (uuid fdebbbe3-a86c-4e22-a457-df3666f8cd11))
  )

  (symbol (lib_name "N20_B_DC_1") (lib_id "iobrizio_v6:N20_B_DC") (at 266.7 132.08 0) (unit 1)
    (in_bom yes) (on_board yes) (fields_autoplaced)
    (uuid 62f5d230-c5a9-4bbc-85d6-378fe264afdd)
    (property "Reference" "J2" (id 0) (at 275.59 132.7102 0)
      (effects (font (size 1.27 1.27)) (justify left))
    )
    (property "Value" "N20_B_DC" (id 1) (at 275.59 133.9802 0)
      (effects (font (size 1.27 1.27)) (justify left) hide)
    )
    (property "Footprint" "mini_robot:N20_bracket" (id 2) (at 266.7 132.08 0)
      (effects (font (size 1.27 1.27)) hide)
    )
    (property "Datasheet" "" (id 3) (at 266.7 132.08 0)
      (effects (font (size 1.27 1.27)) hide)
    )
  )

  (symbol (lib_id "Amplifier_Operational:LM358") (at 189.865 69.215 0) (unit 1)
    (in_bom yes) (on_board yes) (fields_autoplaced)
    (uuid 634afa8c-24b2-44f1-acc7-35a30435833a)
    (property "Reference" "U1" (id 0) (at 189.865 59.055 0))
    (property "Value" "LM358" (id 1) (at 189.865 61.595 0))
    (property "Footprint" "Package_DIP:DIP-8_W7.62mm_LongPads" (id 2) (at 189.865 69.215 0)
      (effects (font (size 1.27 1.27)) hide)
    )
    (property "Datasheet" "http://www.ti.com/lit/ds/symlink/lm2904-n.pdf" (id 3) (at 189.865 69.215 0)
      (effects (font (size 1.27 1.27)) hide)
    )
    (pin "1" (uuid f6c782ca-9230-4efe-929d-f20e375eb5a5))
    (pin "2" (uuid 51cc475e-b0c8-4783-a70e-6ee2d41eff55))
    (pin "3" (uuid 2893e8b0-64cc-4174-a392-ad917b18d864))
  )

  (symbol (lib_id "Device:LED") (at 227.965 52.705 90) (unit 1)
    (in_bom yes) (on_board yes) (fields_autoplaced)
    (uuid 641afc0d-72ac-462f-a74a-5e025241c64b)
    (property "Reference" "D1" (id 0) (at 231.775 53.0224 90)
      (effects (font (size 1.27 1.27)) (justify right))
    )
    (property "Value" "RED" (id 1) (at 231.775 55.5624 90)
      (effects (font (size 1.27 1.27)) (justify right))
    )
    (property "Footprint" "LED_THT:LED_D5.0mm" (id 2) (at 227.965 52.705 0)
      (effects (font (size 1.27 1.27)) hide)
    )
    (property "Datasheet" "~" (id 3) (at 227.965 52.705 0)
      (effects (font (size 1.27 1.27)) hide)
    )
    (pin "1" (uuid 138b7129-cbe2-407e-a84c-d59500696f5d))
    (pin "2" (uuid e82c1f16-60e4-46fb-bb68-8f10fc766062))
  )

  (symbol (lib_id "power:GND") (at 227.965 79.375 0) (unit 1)
    (in_bom yes) (on_board yes) (fields_autoplaced)
    (uuid 6463b700-e3c8-4ecf-b859-2ccd7a555f71)
    (property "Reference" "#PWR010" (id 0) (at 227.965 85.725 0)
      (effects (font (size 1.27 1.27)) hide)
    )
    (property "Value" "GND" (id 1) (at 227.965 84.455 0))
    (property "Footprint" "" (id 2) (at 227.965 79.375 0)
      (effects (font (size 1.27 1.27)) hide)
    )
    (property "Datasheet" "" (id 3) (at 227.965 79.375 0)
      (effects (font (size 1.27 1.27)) hide)
    )
    (pin "1" (uuid 3ab0eb01-95e0-43dd-bac9-623354602a12))
  )

  (symbol (lib_id "Connector:Conn_01x02_Female") (at 46.99 66.04 180) (unit 1)
    (in_bom yes) (on_board yes) (fields_autoplaced)
    (uuid 6e59773b-20cf-43bf-aecf-380aa682d29d)
    (property "Reference" "J1" (id 0) (at 47.625 60.96 0))
    (property "Value" "Conn_01x02_Female" (id 1) (at 47.625 60.325 0)
      (effects (font (size 1.27 1.27)) hide)
    )
    (property "Footprint" "TerminalBlock:TerminalBlock_bornier-2_P5.08mm" (id 2) (at 46.99 66.04 0)
      (effects (font (size 1.27 1.27)) hide)
    )
    (property "Datasheet" "~" (id 3) (at 46.99 66.04 0)
      (effects (font (size 1.27 1.27)) hide)
    )
    (pin "1" (uuid 81c18b0a-52ca-46af-8bf3-8ef5b585e478))
    (pin "2" (uuid 79b24665-ac72-40a1-bf98-1c90306aadbb))
  )

  (symbol (lib_id "Device:R") (at 213.995 132.715 90) (unit 1)
    (in_bom yes) (on_board yes) (fields_autoplaced)
    (uuid 6fbd3d48-ee0a-45d2-838f-39bb103d8c1d)
    (property "Reference" "R4" (id 0) (at 213.995 126.365 90))
    (property "Value" "2.2k" (id 1) (at 213.995 128.905 90))
    (property "Footprint" "Resistor_THT:R_Axial_DIN0207_L6.3mm_D2.5mm_P10.16mm_Horizontal" (id 2) (at 213.995 134.493 90)
      (effects (font (size 1.27 1.27)) hide)
    )
    (property "Datasheet" "~" (id 3) (at 213.995 132.715 0)
      (effects (font (size 1.27 1.27)) hide)
    )
    (pin "1" (uuid 180b2908-8dae-4e2d-8004-5fbf31bd6bb4))
    (pin "2" (uuid cbe20cf1-f3fd-4e01-a85b-49869470ab7a))
  )

  (symbol (lib_id "power:+5V") (at 76.2 106.68 0) (unit 1)
    (in_bom yes) (on_board yes) (fields_autoplaced)
    (uuid 728c79e9-5768-4bc5-81e1-e9810ba43862)
    (property "Reference" "#PWR04" (id 0) (at 76.2 110.49 0)
      (effects (font (size 1.27 1.27)) hide)
    )
    (property "Value" "+5V" (id 1) (at 76.2 101.6 0))
    (property "Footprint" "" (id 2) (at 76.2 106.68 0)
      (effects (font (size 1.27 1.27)) hide)
    )
    (property "Datasheet" "" (id 3) (at 76.2 106.68 0)
      (effects (font (size 1.27 1.27)) hide)
    )
    (pin "1" (uuid 2c186cbf-9cac-4388-adb2-6d310baf89db))
  )

  (symbol (lib_id "Device:R") (at 227.965 104.775 0) (unit 1)
    (in_bom yes) (on_board yes) (fields_autoplaced)
    (uuid 7374d969-12e7-4ff6-84d0-1d3cc6ed4207)
    (property "Reference" "R6" (id 0) (at 230.505 103.5049 0)
      (effects (font (size 1.27 1.27)) (justify left))
    )
    (property "Value" "560" (id 1) (at 230.505 106.0449 0)
      (effects (font (size 1.27 1.27)) (justify left))
    )
    (property "Footprint" "Resistor_THT:R_Axial_DIN0207_L6.3mm_D2.5mm_P10.16mm_Horizontal" (id 2) (at 226.187 104.775 90)
      (effects (font (size 1.27 1.27)) hide)
    )
    (property "Datasheet" "~" (id 3) (at 227.965 104.775 0)
      (effects (font (size 1.27 1.27)) hide)
    )
    (pin "1" (uuid 04cf2629-6017-4b5f-85e1-09233b4c31a4))
    (pin "2" (uuid 99d4ac20-bd1e-4860-a635-a49a8618dcc3))
  )

  (symbol (lib_id "Device:R") (at 213.995 69.215 90) (unit 1)
    (in_bom yes) (on_board yes) (fields_autoplaced)
    (uuid 794bc5a7-f4e8-4a71-ae18-4fdac6ec5481)
    (property "Reference" "R3" (id 0) (at 213.995 62.865 90))
    (property "Value" "2.2k" (id 1) (at 213.995 65.405 90))
    (property "Footprint" "Resistor_THT:R_Axial_DIN0207_L6.3mm_D2.5mm_P10.16mm_Horizontal" (id 2) (at 213.995 70.993 90)
      (effects (font (size 1.27 1.27)) hide)
    )
    (property "Datasheet" "~" (id 3) (at 213.995 69.215 0)
      (effects (font (size 1.27 1.27)) hide)
    )
    (pin "1" (uuid ee1e4d87-c45d-4195-8e27-3c24d07c6772))
    (pin "2" (uuid 45b195c2-72f5-4872-8a09-3bb305675d03))
  )

  (symbol (lib_id "power:GND") (at 227.965 142.875 0) (unit 1)
    (in_bom yes) (on_board yes) (fields_autoplaced)
    (uuid 824baf9a-39fe-41be-9247-e5ae2532076d)
    (property "Reference" "#PWR012" (id 0) (at 227.965 149.225 0)
      (effects (font (size 1.27 1.27)) hide)
    )
    (property "Value" "GND" (id 1) (at 227.965 147.955 0))
    (property "Footprint" "" (id 2) (at 227.965 142.875 0)
      (effects (font (size 1.27 1.27)) hide)
    )
    (property "Datasheet" "" (id 3) (at 227.965 142.875 0)
      (effects (font (size 1.27 1.27)) hide)
    )
    (pin "1" (uuid 349eec0f-6743-4b8b-b3c8-ddec3a5db568))
  )

  (symbol (lib_id "power:+5V") (at 97.79 63.5 0) (unit 1)
    (in_bom yes) (on_board yes) (fields_autoplaced)
    (uuid 86ca7dab-4d53-4413-ad72-3d84676e869a)
    (property "Reference" "#PWR06" (id 0) (at 97.79 67.31 0)
      (effects (font (size 1.27 1.27)) hide)
    )
    (property "Value" "+5V" (id 1) (at 97.79 58.42 0))
    (property "Footprint" "" (id 2) (at 97.79 63.5 0)
      (effects (font (size 1.27 1.27)) hide)
    )
    (property "Datasheet" "" (id 3) (at 97.79 63.5 0)
      (effects (font (size 1.27 1.27)) hide)
    )
    (pin "1" (uuid 8854f1fc-4597-423d-b52f-403e6138a895))
  )

  (symbol (lib_id "power:PWR_FLAG") (at 87.63 109.22 0) (unit 1)
    (in_bom yes) (on_board yes) (fields_autoplaced)
    (uuid 871fe201-8570-4ab4-b58c-0d248a209c25)
    (property "Reference" "#FLG01" (id 0) (at 87.63 107.315 0)
      (effects (font (size 1.27 1.27)) hide)
    )
    (property "Value" "PWR_FLAG" (id 1) (at 87.63 104.14 0))
    (property "Footprint" "" (id 2) (at 87.63 109.22 0)
      (effects (font (size 1.27 1.27)) hide)
    )
    (property "Datasheet" "~" (id 3) (at 87.63 109.22 0)
      (effects (font (size 1.27 1.27)) hide)
    )
    (pin "1" (uuid 4bf9b909-471b-4417-abda-1bac1efb2adc))
  )

  (symbol (lib_id "Transistor_BJT:BC547") (at 225.425 132.715 0) (unit 1)
    (in_bom yes) (on_board yes) (fields_autoplaced)
    (uuid 8e004df2-c57b-4c84-b3eb-5e02b20653cc)
    (property "Reference" "Q2" (id 0) (at 230.505 131.4449 0)
      (effects (font (size 1.27 1.27)) (justify left))
    )
    (property "Value" "BC547C" (id 1) (at 230.505 133.9849 0)
      (effects (font (size 1.27 1.27)) (justify left))
    )
    (property "Footprint" "Package_TO_SOT_THT:TO-92_Inline_Wide" (id 2) (at 230.505 134.62 0)
      (effects (font (size 1.27 1.27) italic) (justify left) hide)
    )
    (property "Datasheet" "https://www.onsemi.com/pub/Collateral/BC550-D.pdf" (id 3) (at 225.425 132.715 0)
      (effects (font (size 1.27 1.27)) (justify left) hide)
    )
    (pin "1" (uuid 86d0e5a2-c65c-4652-8f8c-4bef336dfff2))
    (pin "2" (uuid cd3adc82-c797-4a5b-b7ca-4ac58c7e62d5))
    (pin "3" (uuid 22a15d8c-e7c9-4dab-bf51-003cccca1352))
  )

  (symbol (lib_name "N20_B_DC_1") (lib_id "iobrizio_v6:N20_B_DC") (at 266.7 71.12 0) (unit 1)
    (in_bom yes) (on_board yes) (fields_autoplaced)
    (uuid 8fbeef92-9681-4f07-b856-b6773c48d7b2)
    (property "Reference" "J3" (id 0) (at 275.59 71.7502 0)
      (effects (font (size 1.27 1.27)) (justify left))
    )
    (property "Value" "N20_B_DC" (id 1) (at 275.59 73.0202 0)
      (effects (font (size 1.27 1.27)) (justify left) hide)
    )
    (property "Footprint" "mini_robot:N20_bracket" (id 2) (at 266.7 71.12 0)
      (effects (font (size 1.27 1.27)) hide)
    )
    (property "Datasheet" "" (id 3) (at 266.7 71.12 0)
      (effects (font (size 1.27 1.27)) hide)
    )
  )

  (symbol (lib_id "Amplifier_Operational:LM358") (at 188.595 132.715 0) (mirror x) (unit 2)
    (in_bom yes) (on_board yes) (fields_autoplaced)
    (uuid 9773255d-f5db-4ec0-b54f-bcc9302a4f94)
    (property "Reference" "U1" (id 0) (at 188.595 122.555 0))
    (property "Value" "LM358" (id 1) (at 188.595 125.095 0))
    (property "Footprint" "Package_DIP:DIP-8_W7.62mm_LongPads" (id 2) (at 188.595 132.715 0)
      (effects (font (size 1.27 1.27)) hide)
    )
    (property "Datasheet" "http://www.ti.com/lit/ds/symlink/lm2904-n.pdf" (id 3) (at 188.595 132.715 0)
      (effects (font (size 1.27 1.27)) hide)
    )
    (pin "5" (uuid 25b849f2-a026-4dff-9231-d914bd821356))
    (pin "6" (uuid 7ec655e6-18e7-4ac7-958c-57cde557283c))
    (pin "7" (uuid 08279ebd-6740-4c35-ae71-99481fbb9cdd))
  )

  (symbol (lib_id "Motor:Motor_DC") (at 241.935 111.125 0) (unit 1)
    (in_bom yes) (on_board yes) (fields_autoplaced)
    (uuid 98e7c878-7304-44f6-9e52-434d4f4da9a5)
    (property "Reference" "M2" (id 0) (at 247.015 112.3949 0)
      (effects (font (size 1.27 1.27)) (justify left))
    )
    (property "Value" "Motor_DC" (id 1) (at 247.015 114.9349 0)
      (effects (font (size 1.27 1.27)) (justify left))
    )
    (property "Footprint" "TerminalBlock:TerminalBlock_bornier-2_P5.08mm" (id 2) (at 241.935 113.411 0)
      (effects (font (size 1.27 1.27)) hide)
    )
    (property "Datasheet" "~" (id 3) (at 241.935 113.411 0)
      (effects (font (size 1.27 1.27)) hide)
    )
    (pin "1" (uuid 21526ea1-d242-496b-9640-f90d0a7c759e))
    (pin "2" (uuid 4641bd03-bdbd-4fb2-b638-5de9c68c7ae9))
  )

  (symbol (lib_id "Device:R_Photo") (at 122.555 83.185 0) (unit 1)
    (in_bom yes) (on_board yes) (fields_autoplaced)
    (uuid a68bcbc2-6396-4708-90e5-3e20dcd7100d)
    (property "Reference" "R2" (id 0) (at 125.095 81.9149 0)
      (effects (font (size 1.27 1.27)) (justify left))
    )
    (property "Value" "10k" (id 1) (at 125.095 84.4549 0)
      (effects (font (size 1.27 1.27)) (justify left))
    )
    (property "Footprint" "OptoDevice:R_LDR_5.1x4.3mm_P3.4mm_Vertical" (id 2) (at 123.825 89.535 90)
      (effects (font (size 1.27 1.27)) (justify left) hide)
    )
    (property "Datasheet" "~" (id 3) (at 122.555 84.455 0)
      (effects (font (size 1.27 1.27)) hide)
    )
    (pin "1" (uuid cb122ac4-cab1-4e41-9397-1c87b93e8255))
    (pin "2" (uuid ca2d2cda-2651-461d-9d1a-53a792da35bd))
  )

  (symbol (lib_id "power:PWR_FLAG") (at 87.63 129.54 180) (unit 1)
    (in_bom yes) (on_board yes) (fields_autoplaced)
    (uuid aa2da298-0c1e-4359-88a9-199cb3e0e6c4)
    (property "Reference" "#FLG02" (id 0) (at 87.63 131.445 0)
      (effects (font (size 1.27 1.27)) hide)
    )
    (property "Value" "PWR_FLAG" (id 1) (at 87.63 134.62 0))
    (property "Footprint" "" (id 2) (at 87.63 129.54 0)
      (effects (font (size 1.27 1.27)) hide)
    )
    (property "Datasheet" "~" (id 3) (at 87.63 129.54 0)
      (effects (font (size 1.27 1.27)) hide)
    )
    (pin "1" (uuid 90122b24-5e40-4e91-8146-97c493f98282))
  )

  (symbol (lib_id "power:+5V") (at 227.965 97.155 0) (unit 1)
    (in_bom yes) (on_board yes) (fields_autoplaced)
    (uuid ad63fe03-4470-4417-baf3-38c1e2ffd861)
    (property "Reference" "#PWR011" (id 0) (at 227.965 100.965 0)
      (effects (font (size 1.27 1.27)) hide)
    )
    (property "Value" "+5V" (id 1) (at 227.965 92.075 0))
    (property "Footprint" "" (id 2) (at 227.965 97.155 0)
      (effects (font (size 1.27 1.27)) hide)
    )
    (property "Datasheet" "" (id 3) (at 227.965 97.155 0)
      (effects (font (size 1.27 1.27)) hide)
    )
    (pin "1" (uuid 80cf819f-5c64-4cfe-928a-8988996e68f4))
  )

  (symbol (lib_id "Transistor_BJT:BC547") (at 225.425 69.215 0) (unit 1)
    (in_bom yes) (on_board yes) (fields_autoplaced)
    (uuid ad9a43f6-1244-442e-afff-20aeaa675c81)
    (property "Reference" "Q1" (id 0) (at 230.505 67.9449 0)
      (effects (font (size 1.27 1.27)) (justify left))
    )
    (property "Value" "BC547C" (id 1) (at 230.505 70.4849 0)
      (effects (font (size 1.27 1.27)) (justify left))
    )
    (property "Footprint" "Package_TO_SOT_THT:TO-92_Inline_Wide" (id 2) (at 230.505 71.12 0)
      (effects (font (size 1.27 1.27) italic) (justify left) hide)
    )
    (property "Datasheet" "https://www.onsemi.com/pub/Collateral/BC550-D.pdf" (id 3) (at 225.425 69.215 0)
      (effects (font (size 1.27 1.27)) (justify left) hide)
    )
    (pin "1" (uuid 4b706867-c6e6-4a68-9021-1b2021334328))
    (pin "2" (uuid 777a9f77-ed93-4dd0-b0e1-92f3508e1f06))
    (pin "3" (uuid eb7817e4-d031-4471-be3c-ff46eaa3d69f))
  )

  (symbol (lib_id "Diode:1N4148") (at 258.445 112.395 270) (unit 1)
    (in_bom yes) (on_board yes) (fields_autoplaced)
    (uuid af317941-765b-456b-86d3-f7e7b77cdc2d)
    (property "Reference" "D4" (id 0) (at 260.985 111.1249 90)
      (effects (font (size 1.27 1.27)) (justify left))
    )
    (property "Value" "1N4148" (id 1) (at 260.985 113.6649 90)
      (effects (font (size 1.27 1.27)) (justify left))
    )
    (property "Footprint" "Diode_THT:D_A-405_P10.16mm_Horizontal" (id 2) (at 254 112.395 0)
      (effects (font (size 1.27 1.27)) hide)
    )
    (property "Datasheet" "https://assets.nexperia.com/documents/data-sheet/1N4148_1N4448.pdf" (id 3) (at 258.445 112.395 0)
      (effects (font (size 1.27 1.27)) hide)
    )
    (pin "1" (uuid eebc4f5f-b92a-40c2-a3c8-4b66576f3c0f))
    (pin "2" (uuid e62cd3e5-3573-442a-b38f-08f0c6bede20))
  )

  (symbol (lib_id "Device:R_Potentiometer") (at 147.955 83.185 0) (unit 1)
    (in_bom yes) (on_board yes) (fields_autoplaced)
    (uuid c8caf12c-788c-4457-ab8a-0644ce663cb0)
    (property "Reference" "RV1" (id 0) (at 145.415 81.9149 0)
      (effects (font (size 1.27 1.27)) (justify right))
    )
    (property "Value" "10k" (id 1) (at 145.415 84.4549 0)
      (effects (font (size 1.27 1.27)) (justify right))
    )
    (property "Footprint" "Potentiometer_THT:Potentiometer_Bourns_3386F_Vertical" (id 2) (at 147.955 83.185 0)
      (effects (font (size 1.27 1.27)) hide)
    )
    (property "Datasheet" "~" (id 3) (at 147.955 83.185 0)
      (effects (font (size 1.27 1.27)) hide)
    )
    (pin "1" (uuid fb634643-e942-42b1-a720-7e0879e35b96))
    (pin "2" (uuid e33ea362-e3da-44be-9274-18045696cf3d))
    (pin "3" (uuid 75a11b59-583e-4a99-95e9-5981e1dd9b99))
  )

  (symbol (lib_id "Device:C_Polarized") (at 52.07 115.57 0) (unit 1)
    (in_bom yes) (on_board yes) (fields_autoplaced)
    (uuid d0a42780-1633-4a61-a9a7-634115c74817)
    (property "Reference" "C1" (id 0) (at 55.88 113.4109 0)
      (effects (font (size 1.27 1.27)) (justify left))
    )
    (property "Value" "470uF" (id 1) (at 55.88 115.9509 0)
      (effects (font (size 1.27 1.27)) (justify left))
    )
    (property "Footprint" "Capacitor_THT:CP_Radial_D10.0mm_P2.50mm_P5.00mm" (id 2) (at 53.0352 119.38 0)
      (effects (font (size 1.27 1.27)) hide)
    )
    (property "Datasheet" "~" (id 3) (at 52.07 115.57 0)
      (effects (font (size 1.27 1.27)) hide)
    )
    (pin "1" (uuid 23fe0c3b-3efb-4a60-8f02-c33fc2f70aa3))
    (pin "2" (uuid c95e296d-b96f-4344-b133-7f4ced6be49c))
  )

  (symbol (lib_id "iobrizio_v6:F_WHEEL") (at 76.2 175.26 0) (unit 1)
    (in_bom yes) (on_board yes) (fields_autoplaced)
    (uuid d19d33e2-8ea0-4030-b0b4-407856a46882)
    (property "Reference" "J4" (id 0) (at 80.01 173.9899 0)
      (effects (font (size 1.27 1.27)) (justify left))
    )
    (property "Value" "F_WHEEL" (id 1) (at 80.01 176.5299 0)
      (effects (font (size 1.27 1.27)) (justify left))
    )
    (property "Footprint" "mini_robot:free_wheel" (id 2) (at 76.2 175.26 0)
      (effects (font (size 1.27 1.27)) hide)
    )
    (property "Datasheet" "" (id 3) (at 76.2 175.26 0)
      (effects (font (size 1.27 1.27)) hide)
    )
  )

  (symbol (lib_id "power:+5V") (at 227.965 33.655 0) (unit 1)
    (in_bom yes) (on_board yes) (fields_autoplaced)
    (uuid e71d8b01-ac1f-48ab-bc7c-1bec1ba57717)
    (property "Reference" "#PWR09" (id 0) (at 227.965 37.465 0)
      (effects (font (size 1.27 1.27)) hide)
    )
    (property "Value" "+5V" (id 1) (at 227.965 28.575 0))
    (property "Footprint" "" (id 2) (at 227.965 33.655 0)
      (effects (font (size 1.27 1.27)) hide)
    )
    (property "Datasheet" "" (id 3) (at 227.965 33.655 0)
      (effects (font (size 1.27 1.27)) hide)
    )
    (pin "1" (uuid 9a2e3be8-82fa-4a68-967b-724f84d326c2))
  )

  (symbol (lib_id "Device:R") (at 227.965 41.275 0) (unit 1)
    (in_bom yes) (on_board yes) (fields_autoplaced)
    (uuid f3f7b374-cc81-43c7-9674-29ed9927606e)
    (property "Reference" "R5" (id 0) (at 230.505 40.0049 0)
      (effects (font (size 1.27 1.27)) (justify left))
    )
    (property "Value" "560" (id 1) (at 230.505 42.5449 0)
      (effects (font (size 1.27 1.27)) (justify left))
    )
    (property "Footprint" "Resistor_THT:R_Axial_DIN0207_L6.3mm_D2.5mm_P10.16mm_Horizontal" (id 2) (at 226.187 41.275 90)
      (effects (font (size 1.27 1.27)) hide)
    )
    (property "Datasheet" "~" (id 3) (at 227.965 41.275 0)
      (effects (font (size 1.27 1.27)) hide)
    )
    (pin "1" (uuid ea044105-8cb4-4c91-9c03-ff04cebc58b9))
    (pin "2" (uuid 80d19c31-8686-46b7-a805-8d7d7d14cad3))
  )

  (symbol (lib_id "Motor:Motor_DC") (at 241.935 47.625 0) (unit 1)
    (in_bom yes) (on_board yes) (fields_autoplaced)
    (uuid f894c696-fa30-47aa-bb58-c4c675dd643b)
    (property "Reference" "M1" (id 0) (at 247.015 48.8949 0)
      (effects (font (size 1.27 1.27)) (justify left))
    )
    (property "Value" "Motor_DC" (id 1) (at 247.015 51.4349 0)
      (effects (font (size 1.27 1.27)) (justify left))
    )
    (property "Footprint" "TerminalBlock:TerminalBlock_bornier-2_P5.08mm" (id 2) (at 241.935 49.911 0)
      (effects (font (size 1.27 1.27)) hide)
    )
    (property "Datasheet" "~" (id 3) (at 241.935 49.911 0)
      (effects (font (size 1.27 1.27)) hide)
    )
    (pin "1" (uuid ab707de0-ea2b-4a5e-8fe5-ed553b413ca0))
    (pin "2" (uuid 03aff0be-aa0b-49e2-b26a-fe1b9629a81a))
  )

  (symbol (lib_id "power:+5V") (at 122.555 47.625 0) (unit 1)
    (in_bom yes) (on_board yes) (fields_autoplaced)
    (uuid fad492b2-c626-4265-9fb3-ac23dc582f4d)
    (property "Reference" "#PWR07" (id 0) (at 122.555 51.435 0)
      (effects (font (size 1.27 1.27)) hide)
    )
    (property "Value" "+5V" (id 1) (at 122.555 42.545 0))
    (property "Footprint" "" (id 2) (at 122.555 47.625 0)
      (effects (font (size 1.27 1.27)) hide)
    )
    (property "Datasheet" "" (id 3) (at 122.555 47.625 0)
      (effects (font (size 1.27 1.27)) hide)
    )
    (pin "1" (uuid f82776ef-5f72-4bf7-9dd9-8eb9b878370d))
  )

  (symbol (lib_id "Amplifier_Operational:LM358") (at 78.74 119.38 0) (unit 3)
    (in_bom yes) (on_board yes) (fields_autoplaced)
    (uuid fb36d864-fcd3-4323-adce-a58cb6deca2b)
    (property "Reference" "U1" (id 0) (at 77.47 118.1099 0)
      (effects (font (size 1.27 1.27)) (justify left))
    )
    (property "Value" "LM358" (id 1) (at 77.47 120.6499 0)
      (effects (font (size 1.27 1.27)) (justify left))
    )
    (property "Footprint" "Package_DIP:DIP-8_W7.62mm_LongPads" (id 2) (at 78.74 119.38 0)
      (effects (font (size 1.27 1.27)) hide)
    )
    (property "Datasheet" "http://www.ti.com/lit/ds/symlink/lm2904-n.pdf" (id 3) (at 78.74 119.38 0)
      (effects (font (size 1.27 1.27)) hide)
    )
    (pin "4" (uuid ad78f17d-3a92-4d89-a214-e193f5a72ef7))
    (pin "8" (uuid 13e4e07a-feb5-4d70-98af-a5201188d840))
  )
)
